<?xml version="1.0" encoding="UTF-8"?>
<svg width="73px" height="71px" viewBox="0 0 73 71" version="1.1" xmlns="http://www.w3.org/2000/svg" xmlns:xlink="http://www.w3.org/1999/xlink">
    <!-- Generator: Sketch 46.1 (44463) - http://www.bohemiancoding.com/sketch -->
    <title>arrow_left</title>
    <desc>Created with Sketch.</desc>
    <defs></defs>
    <g id="Page-1" stroke="none" stroke-width="1" fill="none" fill-rule="evenodd">
        <g id="arrow_left" fill-rule="nonzero" fill="#FFFFFF">
            <g id="noun_933271_cc" transform="translate(36.500000, 35.500000) rotate(90.000000) translate(-36.500000, -35.500000) translate(1.000000, -1.000000)">
                <g id="Group">
                    <path d="M35.5,72.1797917 C55.0773867,72.1797917 71.0000081,55.9926569 71.0000081,36.089904 C71.0000081,16.1873071 55.0774028,0 35.5,0 C15.9225568,0 0,16.1873071 0,36.089904 C0,55.9926569 15.9225568,72.1797917 35.5,72.1797917 Z M35.5,67.2584434 C18.5387455,67.2584434 4.84090909,53.3329962 4.84090909,36.089904 C4.84090909,18.8469596 18.5387455,4.92134831 35.5,4.92134831 C52.4611497,4.92134831 66.159099,18.8470498 66.159099,36.089904 C66.159099,53.3329962 52.4611658,67.2584434 35.5,67.2584434 Z M35.5,57.2619546 L36.9876114,56.0828816 L55.5443973,41.3188366 L52.5692552,37.4484422 L35.5,51.0334142 L18.4307932,37.4484422 L15.4556511,41.3188366 L34.0124693,56.0828816 L35.5,57.2619546 Z M35.5,40.8574602 L36.9876114,39.6783872 L55.5443973,24.9143258 L52.5692552,21.0439315 L35.5,34.6289198 L18.4307932,21.0439315 L15.4556511,24.9143258 L34.0124693,39.6783872 L35.5,40.8574602 Z" id="Shape"></path>
                </g>
            </g>
        </g>
    </g>
</svg>