<?xml version="1.0" encoding="UTF-8"?>
<svg width="202px" height="60px" viewBox="0 0 202 60" version="1.1" xmlns="http://www.w3.org/2000/svg" xmlns:xlink="http://www.w3.org/1999/xlink">
    <!-- Generator: Sketch 46.1 (44463) - http://www.bohemiancoding.com/sketch -->
    <title>Playstore</title>
    <desc>Created with Sketch.</desc>
    <defs>
        <rect id="path-1" x="0" y="0" width="201.217023" height="59.8047361" rx="20"></rect>
        <linearGradient x1="50%" y1="0%" x2="50%" y2="38.9125982%" id="linearGradient-2">
            <stop stop-color="#FBDA09" offset="0%"></stop>
            <stop stop-color="#FFBC00" offset="100%"></stop>
        </linearGradient>
        <path d="M9.54158502,14.7898034 C14.2298208,6.49518488 21.8348428,6.50187186 26.519435,14.7898034 L30.2836304,21.4493786 C34.9720023,29.743997 31.0428156,36.4681139 21.5101324,36.4681139 L14.5512435,36.4681139 C5.0174024,36.4681139 1.09304272,29.73731 5.77749888,21.4493786 L9.54158502,14.7898034 Z" id="path-3"></path>
        <linearGradient x1="0%" y1="58.4755255%" x2="69.3064856%" y2="39.0830098%" id="linearGradient-5">
            <stop stop-color="#01E2FF" offset="0%"></stop>
            <stop stop-color="#01C4FF" offset="100%"></stop>
        </linearGradient>
        <linearGradient x1="20.2810876%" y1="20.1019903%" x2="83.820166%" y2="83.6214476%" id="linearGradient-6">
            <stop stop-color="#28D781" offset="0%"></stop>
            <stop stop-color="#02F076" offset="100%"></stop>
        </linearGradient>
        <linearGradient x1="74.4881466%" y1="17.4301299%" x2="10.1079427%" y2="91.1838038%" id="linearGradient-7">
            <stop stop-color="#F2414E" offset="0%"></stop>
            <stop stop-color="#E02554" offset="100%"></stop>
        </linearGradient>
    </defs>
    <g id="Page-1" stroke="none" stroke-width="1" fill="none" fill-rule="evenodd">
        <g id="Desktop-HD" transform="translate(-1198.000000, -60.000000)">
            <g id="Playstore" transform="translate(1198.000000, 60.000000)">
                <g id="background">
                    <use fill="#000000" fill-rule="evenodd" xlink:href="#path-1"></use>
                    <rect stroke="#A6A6A6" stroke-width="4" x="2" y="2" width="197.217023" height="55.8047361" rx="20"></rect>
                    <rect stroke="#8F8F8F" stroke-width="2" x="1" y="1" width="199.217023" height="57.8047361" rx="20"></rect>
                </g>
                <g id="get-it-on" transform="translate(61.704750, 10.933623)" fill="#FFFFFF">
                    <path d="M44.9253878,9.80414264 C42.2349727,9.80414264 40.0539602,7.60941055 40.0539602,4.90207132 C40.0539602,2.19473209 42.2349727,0 44.9253878,0 C47.615803,0 49.7968154,2.19473209 49.7968154,4.90207132 C49.7968154,7.60941055 47.615803,9.80414264 44.9253878,9.80414264 Z M44.9253878,8.30628752 C46.7937317,8.30628752 48.3083237,6.78216801 48.3083237,4.90207132 C48.3083237,3.02197463 46.7937317,1.49785513 44.9253878,1.49785513 C43.057044,1.49785513 41.542452,3.02197463 41.542452,4.90207132 C41.542452,6.78216801 43.057044,8.30628752 44.9253878,8.30628752 Z" id="o"></path>
                    <path d="M11.9079341,5.44674591 L11.9079341,8.44245616 L15.8321397,8.44245616 L15.8321397,9.53180535 L10.4194424,9.53180535 L10.4194424,8.98713076 L10.4194424,1.02126486 L10.4194424,0.408505943 L15.8321397,0.408505943 L15.8321397,1.49785513 L11.9079341,1.49785513 L11.9079341,4.35739673 L15.4261874,4.35739673 L15.4261874,5.44674591 L11.9079341,5.44674591 Z" id="e"></path>
                    <path d="M21.1095196,1.49785513 L21.1095196,9.53180535 L19.6210278,9.53180535 L19.6210278,1.49785513 L17.3206315,1.49785513 L17.3206315,0.408505943 L23.409916,0.408505943 L23.409916,1.49785513 L21.1095196,1.49785513 Z" id="t"></path>
                    <path d="M34.3706281,1.49785513 L34.3706281,9.53180535 L32.8821363,9.53180535 L32.8821363,1.49785513 L30.5817399,1.49785513 L30.5817399,0.408505943 L36.6710244,0.408505943 L36.6710244,1.49785513 L34.3706281,1.49785513 Z" id="t"></path>
                    <rect id="i" x="27.7400738" y="0.408505943" width="1.48849177" height="9.1232994"></rect>
                    <path d="M51.8942357,0.408505943 L51.0146723,0.408505943 L51.0146723,9.53180535 L52.5031641,9.53180535 L52.5031641,2.41118142 L56.833322,9.53180535 L57.5775679,9.53180535 L58.3218137,9.53180535 L58.3218137,0.408505943 L56.833322,0.408505943 L56.833322,7.08409087 L52.773799,0.408505943 L51.8942357,0.408505943 Z" id="n"></path>
                    <g id="g" transform="translate(0.000000, 0.136169)">
                        <polygon id="Rectangle-1" points="4.84209914 4.38056055 8.91753259 4.38056055 8.87718176 5.67850442 4.84209914 5.67850442"></polygon>
                        <path d="M8.11555251,1.32662696 C7.32231559,0.484768719 6.1619265,0 4.7815729,0 C2.14078311,0 0,2.15192024 0,4.80644839 C0,7.46097653 2.14078565,9.60909052 4.7815729,9.61289677 C7.46647905,9.63721738 9.70587109,7.73403113 9.25807149,4.42880566 C9.25807149,4.41269145 9.25800384,4.39660969 9.25786878,4.38056055 L8.06740844,4.38056055 C8.07710101,4.51854974 8.08048074,4.66055972 8.07725815,4.80644839 C8.08009532,7.16713133 6.72730371,8.27439216 4.82192373,8.27439216 C2.91654375,8.27439216 1.37192809,6.72174084 1.37192809,4.80644839 C1.37192809,2.89115593 2.91654375,1.33850461 4.82192373,1.33850461 C5.77515477,1.33850461 6.60130526,1.66623425 7.18297922,2.26405184 L8.11555251,1.32662696 Z" id="Oval-1"></path>
                    </g>
                </g>
                <g id="googleplay" transform="translate(61.028162, 25.287238)" fill="#FFFFFF">
                    <g id="big-P" transform="translate(84.438078, 0.680843)">
                        <path d="M0.676587166,4.78584018e-07 L8.34812401,0 C8.34812401,0 12.7644163,0.756108332 12.764416,5.8593095 C12.7644156,10.9625107 8.34812401,11.718619 8.34812401,11.718619 L0.676587166,11.7186195 L0.676587166,4.78584018e-07 Z M2.16507893,2.83461086 L2.16507893,9.1232994 L7.37289295,9.1232994 C7.37289295,9.1232994 9.7428552,9.1232994 9.7428552,5.97895513 C9.7428552,2.83461086 7.37289295,2.83461086 7.37289295,2.83461086 L2.16507893,2.83461086 Z" id="Combined-Shape"></path>
                        <rect id="Rectangle-6" x="0" y="0" width="2.70634867" height="19.0636107"></rect>
                    </g>
                    <rect id="y" x="98.7817263" y="0.680843239" width="2.70634867" height="19.0636107"></rect>
                    <path d="M111.518888,18.3814239 C110.773464,19.0003222 109.581719,19.5828082 107.699474,19.7011034 C103.387355,19.9721111 103.385108,16.0124487 103.385108,15.7454307 C103.385108,15.4784128 103.172419,12.2492608 106.602597,11.7359688 C109.031501,11.3725076 110.732688,11.9781039 111.518888,12.3626222 L111.518888,11.8024999 C111.32609,11.0606765 110.727791,9.69762791 108.934114,9.69762791 C106.469868,9.69762791 105.92568,11.038304 105.92568,11.038304 L103.671402,9.69762791 C103.671402,9.69762791 104.932855,7.08076968 108.717923,7.08076969 C113.424288,7.08076969 114.225518,10.3473711 114.225518,11.4475579 C114.225518,11.4529131 114.225424,11.4582337 114.225237,11.4635198 L114.225237,19.738337 L111.518888,19.738337 L111.518888,18.3814239 Z M111.325559,14.298107 C111.325559,14.298107 106.111741,12.8839611 105.930503,15.8314005 C105.749265,18.7788399 110.932425,17.3635638 111.39553,15.2741596 C111.39553,14.609739 111.325559,14.298107 111.325559,14.298107 Z" id="a"></path>
                    <path d="M119.303516,19.0211833 L116.778945,25.0550312 L119.485294,25.0550312 L126.807235,7.55523232 L124.100887,7.55523232 L120.65669,15.7870305 L117.184897,7.48927563 L114.478549,7.48927563 L119.303516,19.0211833 Z" id="y"></path>
                    <path d="M78.3792872,11.945484 L69.8199231,15.5051357 C69.8199231,15.5051357 70.3727183,17.4739736 72.9461527,17.4871695 C74.9612476,17.4975025 76.0987803,15.6898393 76.0987803,15.6898393 L78.2704058,17.1697799 C78.2704058,17.1697799 76.5180231,20.0217453 72.9290474,20.0217453 C68.5186912,20.0217453 66.5761772,16.1409884 66.5761772,13.6206968 C66.5761772,11.1924609 68.1180338,7.08076969 72.6553636,7.08076969 C77.1926934,7.08076969 78.3792872,11.945484 78.3792872,11.945484 Z M75.1226302,10.9370866 C75.1226302,10.9370866 74.0457433,9.28832328 72.3941797,9.59239167 C68.9005987,10.2355928 69.3402362,13.3120593 69.3402362,13.3120593 L75.1226302,10.9370866 Z" id="e"></path>
                    <rect id="i" x="62.5166542" y="0.680843239" width="2.86315427" height="19.0235611"></rect>
                    <path d="M57.9347918,7.49421349 L60.581499,7.51722201 L60.581499,19.5205059 C60.581499,22.587312 58.7670276,25.8246201 54.4953224,25.8246201 C50.2236173,25.8246201 48.8440138,22.0160272 48.8440138,22.0160272 L51.2747673,20.9873182 C51.2747673,20.9873182 52.0161315,23.3345514 54.6216381,23.3345482 C57.5887396,23.3345447 57.9351207,20.6181588 57.9351207,19.688332 L57.9351207,18.3856976 C57.9351207,18.3856976 56.9084773,20.0026142 54.3584805,20.0026177 C51.5937636,20.0026216 48.3083237,17.6189755 48.3083237,13.5553314 C48.3083237,9.4916874 51.4019875,7.1673286 54.3904706,7.08277944 C56.784218,7.01505634 57.9347918,8.68139262 57.9347918,8.68139262 L57.9347918,7.49421349 Z M54.5844671,17.5634075 C56.5145545,17.5634075 58.0791995,15.7842719 58.0791995,13.589597 C58.0791995,11.394922 56.5145545,9.61578642 54.5844671,9.61578642 C52.6543796,9.61578642 51.0897346,11.394922 51.0897346,13.589597 C51.0897346,15.7842719 52.6543796,17.5634075 54.5844671,17.5634075 Z" id="g"></path>
                    <path d="M40.6774077,20.0167912 C37.1195357,20.0167912 34.2353106,17.1209642 34.2353106,13.5487805 C34.2353106,9.97659675 37.1195357,7.08076969 40.6774077,7.08076969 C44.2352797,7.08076969 47.1195049,9.97659675 47.1195049,13.5487805 C47.1195049,17.1209642 44.2352797,20.0167912 40.6774077,20.0167912 Z M40.6353025,17.4803164 C42.6351521,17.4803164 44.2563506,15.7201078 44.2563506,13.5487805 C44.2563506,11.3774531 42.6351521,9.6172445 40.6353025,9.6172445 C38.6354529,9.6172445 37.0142545,11.3774531 37.0142545,13.5487805 C37.0142545,15.7201078 38.6354529,17.4803164 40.6353025,17.4803164 Z" id="o"></path>
                    <path d="M26.7397121,20.0167912 C23.1818401,20.0167912 20.297615,17.1209642 20.297615,13.5487805 C20.297615,9.97659675 23.1818401,7.08076969 26.7397121,7.08076969 C30.2975841,7.08076969 33.1818092,9.97659675 33.1818092,13.5487805 C33.1818092,17.1209642 30.2975841,20.0167912 26.7397121,20.0167912 Z M26.6976069,17.4803164 C28.6974565,17.4803164 30.318655,15.7201078 30.318655,13.5487805 C30.318655,11.3774531 28.6974565,9.6172445 26.6976069,9.6172445 C24.6977573,9.6172445 23.0765588,11.3774531 23.0765588,13.5487805 C23.0765588,15.7201078 24.6977573,17.4803164 26.6976069,17.4803164 Z" id="o"></path>
                    <g id="big-g">
                        <polygon id="Rectangle-1" points="10.1052504 9.13130932 18.6105028 9.13130932 18.5262924 11.8368825 10.1052504 11.8368825"></polygon>
                        <path d="M16.9368052,2.76536325 C15.2813543,1.01050381 12.8596727,0 9.97893475,0 C4.46772127,0 0,4.4856929 0,10.0190755 C0,15.5524581 4.46772658,20.0302169 9.97893475,20.038151 C15.5822171,20.0888475 20.255731,16.1216424 19.3211927,9.23187659 C19.3211927,9.19828641 19.3210515,9.16476385 19.3207696,9.13130932 L16.8363307,9.13130932 C16.8565586,9.41894874 16.863612,9.71496956 16.8568866,10.0190755 C16.8628076,14.9399357 14.0395903,17.2480287 10.0631452,17.2480287 C6.0867,17.2480287 2.86315427,14.0115161 2.86315427,10.0190755 C2.86315427,6.02663489 6.0867,2.79012229 10.0631452,2.79012229 C12.0524969,2.79012229 13.7766371,3.47327703 14.9905653,4.71943201 L16.9368052,2.76536325 Z" id="Oval-1"></path>
                    </g>
                </g>
                <g id="logo_play" transform="translate(13.892457, 10.621155)">
                    <mask id="mask-4" fill="white">
                        <use xlink:href="#path-3"></use>
                    </mask>
                    <use id="yellow" fill="url(#linearGradient-2)" transform="translate(18.030132, 19.214099) rotate(-270.000000) translate(-18.030132, -19.214099) " xlink:href="#path-3"></use>
                    <polygon id="blue" fill="url(#linearGradient-5)" mask="url(#mask-4)" points="0.857142857 -0.0134277422 19.7727398 18.9052112 0.612819714 38.5716075"></polygon>
                    <polygon id="green" fill="url(#linearGradient-6)" mask="url(#mask-4)" points="-3.03260688 -3.90810225 19.770495 18.9107449 26.5501229 12.4024077"></polygon>
                    <polygon id="red" fill="url(#linearGradient-7)" mask="url(#mask-4)" points="19.7736012 18.9063914 30.1525319 29.4336753 -0.853536793 39.9609592"></polygon>
                </g>
            </g>
        </g>
    </g>
</svg>