<?xml version="1.0" encoding="UTF-8"?>
<svg width="203px" height="202px" viewBox="0 0 203 202" version="1.1" xmlns="http://www.w3.org/2000/svg" xmlns:xlink="http://www.w3.org/1999/xlink">
    <!-- Generator: Sketch 46.1 (44463) - http://www.bohemiancoding.com/sketch -->
    <title>Group</title>
    <desc>Created with Sketch.</desc>
    <defs>
        <rect id="path-1" x="0" y="0.90234375" width="188.097656" height="188.097656" rx="59"></rect>
        <filter x="-3.7%" y="-3.7%" width="114.9%" height="114.4%" filterUnits="objectBoundingBox" id="filter-2">
            <feOffset dx="10" dy="9" in="SourceAlpha" result="shadowOffsetOuter1"></feOffset>
            <feGaussianBlur stdDeviation="2" in="shadowOffsetOuter1" result="shadowBlurOuter1"></feGaussianBlur>
            <feColorMatrix values="0 0 0 0 0   0 0 0 0 0   0 0 0 0 0  0 0 0 0.0426573822 0" type="matrix" in="shadowBlurOuter1"></feColorMatrix>
        </filter>
        <linearGradient x1="97.4761211%" y1="113.32097%" x2="56.987261%" y2="0%" id="linearGradient-3">
            <stop stop-color="#34ADA6" offset="0%"></stop>
            <stop stop-color="#C5D946" offset="100%"></stop>
        </linearGradient>
    </defs>
    <g id="Page-1" stroke="none" stroke-width="1" fill="none" fill-rule="evenodd">
        <g id="Desktop-HD" transform="translate(-114.000000, -532.000000)">
            <g id="Group" transform="translate(114.000000, 532.000000)">
                <g id="Rectangle-2">
                    <use fill="black" fill-opacity="1" filter="url(#filter-2)" xlink:href="#path-1"></use>
                    <use fill="#FFFFFF" fill-rule="evenodd" xlink:href="#path-1"></use>
                </g>
                <g id="Page-1" transform="translate(34.000000, 36.000000)">
                    <polygon id="Fill-1" fill="url(#linearGradient-3)" points="15.5368384 37.9403198 2.11865979 48.8774463 2.11865979 116.461829 118.409541 116.461829 117.232508 48.8774463 104.991363 39.8361544 103.814329 58.2191479 60.2641006 92.8817959 15.5368384 59.3229292"></polygon>
                    <polygon id="Fill-2" fill="#A0CD65" points="59.2047707 3.04187138 47.0516673 13.8886864 73.4468726 14.1244867"></polygon>
                    <polygon id="Fill-3" fill="#A0CD65" points="14.5952119 39.8361544 2.11865979 48.8774463 14.5952119 59.3229292"></polygon>
                    <polygon id="Fill-4" fill="#A0CD65" points="117.467915 47.2592666 104.991363 39.8362723 104.991363 59.3228113"></polygon>
                    <polygon id="Fill-5" fill="#FEFEFE" points="16.0076517 14.8318877 14.5952119 57.0467486 58.3540111 92.8817959 103.814329 57.0467486 103.814329 13.8886864"></polygon>
                    <path d="M106.427367,37.1622258 L106.427367,12.4739316 L75.0005799,12.4739316 L75.0947426,12.3324514 L59.7933108,0.235658847 L44.3270944,12.4739316 L13.1592549,12.4739316 L13.1592549,37.13841 L2.35406642e-05,47.5374402 L2.35406642e-05,118.536919 L119.586598,118.536919 L119.586598,47.5374402 L106.427367,37.1622258 Z M114.431193,48.3863214 L106.450907,54.5876342 L106.450907,42.0902169 L114.431193,48.3863214 Z M59.7933108,5.16412148 L69.0447919,12.4739316 L50.5418298,12.4739316 L59.7933108,5.16412148 Z M102.590238,16.341057 L102.590238,57.5589541 L59.7933108,90.7596401 L17.0199238,57.6296942 L17.0199238,16.364637 L102.590238,16.364637 L102.590238,16.341057 Z M13.1592549,54.6350301 L5.13188835,48.4099014 L13.1592549,42.0668726 L13.1592549,54.6350301 Z M3.86069248,114.693373 L3.86069248,52.3241869 L41.902406,81.7992277 L16.4784885,102.3372 L18.903177,105.35568 L45.0333143,84.2279711 L59.7933108,95.6642869 L74.5297667,84.2515511 L100.659904,105.37926 L103.084592,102.361016 L77.660675,81.7992277 L115.725929,52.2770268 L115.725929,114.716718 L3.86069248,114.716718 L3.86069248,114.693373 Z" id="Fill-6" fill="#231F20"></path>
                    <path d="M44.3271179,12.473908 L13.1592784,12.473908 L13.1592784,37.1386222 L4.70813284e-05,47.5374166 L4.70813284e-05,118.536659 L119.586622,118.536659 L119.586622,47.5374166 L106.42739,37.1622023 L106.42739,12.473908 L75.0006035,12.473908 L75.0947661,12.3326636 L59.7933344,0.235871067 L44.3271179,12.473908 Z M59.7933344,5.1638621 L69.04458,12.473908 L50.5418533,12.473908 L59.7933344,5.1638621 Z M17.0199474,57.6296706 L17.0199474,16.3646134 L102.590262,16.3646134 L102.590262,57.5591663 L59.7933344,90.7596166 L17.0199474,57.6296706 Z M5.13191189,48.4101136 L13.1592784,42.0668491 L13.1592784,54.6347707 L5.13191189,48.4101136 Z M106.450931,42.0901933 L114.431216,48.3862978 L106.450931,54.5878464 L106.450931,42.0901933 Z M103.084616,102.360993 L77.6606985,81.7992041 L115.725953,52.2767674 L115.725953,114.716694 L3.86071602,114.716694 L3.86071602,114.69335 L3.86071602,52.3241633 L41.9021941,81.7992041 L16.4782767,102.337413 L18.9032005,105.355657 L45.0333378,84.2279475 L59.7933344,95.6642633 L74.5295548,84.2517633 L100.659928,105.379237 L103.084616,102.360993 Z" id="Fill-7" fill="#424242"></path>
                    <g id="Group-48" transform="translate(26.130137, 19.500687)" fill="#424242">
                        <path d="M10.2943325,12.1130864 L12.3918057,12.1130864 C12.7543319,12.1130864 13.0217539,12.1260554 13.1945423,12.1519934 C13.36686,12.1779315 13.5655432,12.251737 13.7901211,12.3724667 C14.0142283,12.4936681 14.1740694,12.7011724 14.2691737,12.9949796 C14.3638071,13.2892584 14.4115947,13.6868178 14.4115947,14.1881292 C14.4115947,14.6724631 14.3682799,15.0615337 14.282121,15.3553409 C14.1954914,15.6496197 14.0490684,15.8526438 13.8419106,15.9648847 C13.6347528,16.0773615 13.4490169,16.146451 13.2851739,16.172389 C13.1208601,16.198327 12.8663855,16.2112961 12.5212793,16.2112961 L10.2943325,16.2112961 L10.2943325,18.312277 C10.2943325,18.6754095 10.2813851,18.9437502 10.2554904,19.1163561 C10.2295957,19.2894335 10.1559134,19.488449 10.0353852,19.7129309 C9.91438617,19.9378844 9.70722832,20.0979928 9.41391165,20.1927846 C9.12012416,20.2880479 8.72322856,20.3354438 8.22275403,20.3354438 C7.73922879,20.3354438 7.35080783,20.2880479 7.05749115,20.1927846 C6.76370366,20.0979928 6.56101854,19.9378844 6.44896498,19.7129309 C6.3364406,19.488449 6.26770186,19.2849533 6.24180713,19.1036229 C6.2159124,18.9218208 6.20296504,18.6494714 6.20296504,18.2863389 L6.20296504,16.2112961 L3.95012347,16.2112961 C3.60454651,16.2112961 3.35007193,16.198327 3.18622891,16.172389 C3.02191507,16.146451 2.83665005,16.0773615 2.6294922,15.9648847 C2.42233435,15.8526438 2.27544061,15.6451395 2.18928178,15.3423718 C2.10265213,15.0400758 2.05980812,14.6465251 2.05980812,14.1621912 C2.05980812,13.6783289 2.10712486,13.2847782 2.20222914,12.9822464 C2.29686261,12.6797146 2.46117645,12.4719745 2.69422903,12.3594977 C2.9272816,12.2472568 3.13443945,12.1779315 3.31570256,12.1519934 C3.49696568,12.1260554 3.76886035,12.1130864 4.13138658,12.1130864 L6.20296504,12.1130864 L6.20296504,10.0121055 C6.20296504,9.64897296 6.2159124,9.38110378 6.24180713,9.20802634 C6.26770186,9.0354205 6.3364406,8.83640503 6.44896498,8.61145152 C6.56101854,8.38696961 6.76817639,8.22686118 7.07043852,8.13159785 C7.37222983,8.03680612 7.76512352,7.98893865 8.24864876,7.98893865 C8.73170319,7.98893865 9.12459688,8.03680612 9.42685901,8.13159785 C9.72865033,8.22686118 9.93580817,8.38696961 10.0483325,8.61145152 C10.1603861,8.83640503 10.2295957,9.03942911 10.2554904,9.22099536 C10.2813851,9.40256161 10.2943325,9.67491099 10.2943325,10.0380435 L10.2943325,12.1130864 Z" id="Fill-8"></path>
                        <path d="M21.9694897,10.3231733 C23.3569765,10.3231733 24.5121169,10.8516018 25.4351463,11.9079872 C26.3579404,12.9643727 26.8193374,14.2570301 26.8193374,15.7857236 L26.8193374,19.4554841 C26.8193374,19.7752294 26.8089795,20.0150383 26.7880283,20.1746751 C26.7673125,20.3345477 26.7049298,20.5154066 26.6006446,20.7167801 C26.4965949,20.9183893 26.3125069,21.0608127 26.0493223,21.1442861 C25.7854314,21.2275236 25.4316152,21.2692602 24.9876383,21.2692602 C24.5573149,21.2692602 24.2138567,21.2275236 23.9572634,21.1442861 C23.7004348,21.0608127 23.5165822,20.9183893 23.4057057,20.7167801 C23.2943583,20.5154066 23.2289153,20.3310107 23.2079641,20.1640641 C23.1870129,19.9973533 23.176655,19.7471691 23.176655,19.4137475 L23.176655,15.7649732 C23.176655,15.1952796 23.0170493,14.7503244 22.6980733,14.4305791 C22.3786265,14.1108339 21.9694897,13.9511971 21.4699568,13.9511971 C20.9840775,13.9511971 20.5539896,14.1006945 20.1794576,14.3992177 C19.8046902,14.6984483 19.5895286,15.0351712 19.534208,15.4105653 L19.534208,19.4554841 C19.534208,19.7752294 19.5238501,20.0150383 19.5028989,20.1746751 C19.4821831,20.3345477 19.419565,20.5154066 19.3157506,20.7167801 C19.2114655,20.9183893 19.0273775,21.0608127 18.7639575,21.1442861 C18.500302,21.2275236 18.1464858,21.2692602 17.7025089,21.2692602 C17.2721856,21.2692602 16.9251962,21.2275236 16.6617761,21.1442861 C16.3981207,21.0608127 16.2142681,20.9148523 16.1102184,20.706169 C16.0059332,20.4977216 15.9435505,20.3173343 15.9228347,20.1640641 C15.9021189,20.0115013 15.8915256,19.7681553 15.8915256,19.4344979 L15.8915256,6.9665556 C15.8915256,6.64681035 15.9021189,6.40723722 15.9228347,6.2471288 C15.9435505,6.08749198 16.0059332,5.90686893 16.1102184,5.70502385 C16.2142681,5.50388617 16.3981207,5.36099117 16.6617761,5.27775366 C16.9251962,5.19428034 17.2790124,5.15254368 17.7232247,5.15254368 C18.1533126,5.15254368 18.500302,5.19428034 18.7639575,5.27775366 C19.0273775,5.36099117 19.2114655,5.50695157 19.3157506,5.71563486 C19.419565,5.92408235 19.4821831,6.10847821 19.5028989,6.26811503 C19.5238501,6.42798765 19.534208,6.66779658 19.534208,6.98754183 L19.534208,11.5950802 C20.2279514,10.747378 21.0396335,10.3231733 21.9694897,10.3231733" id="Fill-10"></path>
                        <path d="M33.6879853,17.5788672 C34.1875182,17.5788672 34.6070129,17.3911701 34.9474109,17.015776 C35.2871026,16.6406177 35.4573016,16.2237227 35.4573016,15.7650911 C35.4573016,15.3203717 35.2939294,14.9032409 34.9681266,14.5139346 C34.641853,14.1250998 34.2011718,13.9300929 33.6463183,13.9300929 C33.1051185,13.9300929 32.6644372,14.1250998 32.32451,14.5139346 C31.9845829,14.9032409 31.8146193,15.3269741 31.8146193,15.7858415 C31.8146193,16.2444732 31.9949407,16.6583027 32.3558191,17.026387 C32.7166975,17.394943 33.160439,17.5788672 33.6879853,17.5788672 M37.4140017,10.2815545 C37.8438542,10.2815545 38.1908436,10.3230553 38.4547344,10.4067645 C38.7181545,10.4902378 38.9020071,10.6359624 39.0062922,10.8444099 C39.1103419,11.0528574 39.1727247,11.2372532 39.1934405,11.39689 C39.2143917,11.5569985 39.2247496,11.7968074 39.2247496,12.1163168 L39.2247496,19.4136296 C39.2247496,19.7336106 39.2143917,19.9731837 39.1934405,20.1328205 C39.1727247,20.292929 39.1103419,20.473552 39.0062922,20.6751613 C38.9020071,20.8765348 38.7181545,21.0189582 38.4547344,21.1024315 C38.1908436,21.1859048 37.8370274,21.2276415 37.3930505,21.2276415 C36.7685166,21.2276415 36.3278354,21.1335571 36.0714776,20.9460959 C35.8144135,20.7583988 35.6654011,20.484163 35.6237341,20.1224453 C35.1103123,20.8593214 34.277679,21.2276415 33.1260697,21.2276415 C31.8772374,21.2276415 30.7392817,20.6786983 29.7124379,19.5803404 C28.6853588,18.4824541 28.1721723,17.1968707 28.1721723,15.7233544 C28.1721723,14.2918107 28.6888899,13.0305147 29.7227958,11.938995 C30.7564664,10.8479469 31.890891,10.3025407 33.1260697,10.3025407 C33.5975892,10.3025407 34.0279125,10.3857782 34.4165689,10.5524891 C34.8049898,10.7194357 35.0754721,10.8757713 35.228251,11.0217317 C35.3807945,11.1676921 35.5057954,11.3103513 35.6030184,11.4492377 C35.6446853,11.0599314 35.7934623,10.7682464 36.0505264,10.5734753 C36.3071196,10.37894 36.7614545,10.2815545 37.4140017,10.2815545" id="Fill-12"></path>
                        <path d="M46.9884606,10.2814838 C48.3759474,10.2814838 49.5310878,10.8132135 50.4541172,11.876673 C51.3769113,12.9396608 51.8383083,14.236091 51.8383083,15.7650204 L51.8383083,19.4343092 C51.8383083,19.7545261 51.8279504,19.9940992 51.8069992,20.153736 C51.7862834,20.3138445 51.7239007,20.4947033 51.6196155,20.695841 C51.5155658,20.8974503 51.3314778,21.0398737 51.0682932,21.123347 C50.8044023,21.2065845 50.4505861,21.2483212 50.0066092,21.2483212 C49.6457308,21.2483212 49.3474706,21.2136585 49.1115932,21.1440974 C48.8754803,21.0745363 48.6951588,20.9950716 48.5703933,20.9045243 C48.4453924,20.8142128 48.3519359,20.6715536 48.2893177,20.4767825 C48.226935,20.282483 48.1920948,20.1223746 48.185268,19.9974004 C48.1782058,19.8724262 48.1749101,19.677891 48.1749101,19.4137946 L48.1749101,15.7440341 C48.1749101,15.1743405 48.0117733,14.7296211 47.6857351,14.4098759 C47.3594615,14.0901306 46.9190157,13.930258 46.3641622,13.930258 C45.8227269,13.930258 45.3820457,14.0969688 45.0423539,14.4306263 C44.7021913,14.7642838 44.5322277,15.2019292 44.5322277,15.7440341 L44.5322277,19.4343092 C44.5322277,19.7545261 44.5218698,19.9940992 44.5011541,20.153736 C44.4802029,20.3138445 44.4178201,20.4947033 44.3137704,20.695841 C44.2097206,20.8974503 44.0256326,21.0398737 43.7622126,21.123347 C43.4983218,21.2065845 43.1445056,21.2483212 42.700764,21.2483212 C42.2704407,21.2483212 41.9232159,21.2065845 41.6597959,21.123347 C41.3961404,21.0398737 41.2122878,20.8939133 41.1082381,20.6854658 C41.0041884,20.4767825 40.9418056,20.2928582 40.9210898,20.1327498 C40.9001386,19.9733488 40.8897807,19.7335399 40.8897807,19.4137946 L40.8897807,12.0330086 C40.8897807,11.7274114 40.9001386,11.4944406 40.9210898,11.334568 C40.9418056,11.1746954 41.0074841,10.9976093 41.118596,10.8028383 C41.2297079,10.608303 41.4170916,10.4729536 41.6807471,10.3960827 C41.9441671,10.3199192 42.2911565,10.2814838 42.7214798,10.2814838 C43.1376788,10.2814838 43.477606,10.3232204 43.7414968,10.4066937 C44.0049168,10.490167 44.1852383,10.61184 44.2824613,10.7714768 C44.3794488,10.9315853 44.4385359,11.0669346 44.4594871,11.1782324 C44.4802029,11.2892943 44.4907962,11.4354906 44.4907962,11.6158778 C44.5183387,11.5741411 44.5564746,11.5255663 44.6052038,11.4699174 C44.6536976,11.4147401 44.7577473,11.3102806 44.917353,11.1572462 C45.0767233,11.0044476 45.2469223,10.8688624 45.4274792,10.7504906 C45.6075653,10.6325904 45.840147,10.5248297 46.1247537,10.4274442 C46.4088895,10.3302944 46.6970272,10.2814838 46.9884606,10.2814838" id="Fill-14"></path>
                        <path d="M59.955812,15.7649968 L62.7241941,18.0586266 C62.9042802,18.2114252 63.039639,18.3295611 63.1300352,18.4127986 C63.2201959,18.496272 63.3068256,18.6078055 63.3901595,18.7464561 C63.4734935,18.8853425 63.5151605,19.0247005 63.5151605,19.1633511 C63.5151605,19.4970085 63.2997634,19.948802 62.8696754,20.5184956 C62.3979205,21.102573 61.9539436,21.394258 61.5377447,21.394258 C61.2463112,21.394258 60.8783707,21.2136349 60.4343937,20.852153 L60.3512952,20.7899017 L60.1429603,20.6437055 C59.8237489,20.379845 59.3312782,19.9174405 58.6653128,19.2574354 C57.999112,18.5971945 57.4925169,18.1279518 57.1457629,17.8499433 L57.1457629,19.4552719 C57.1457629,19.7752529 57.135405,20.0148261 57.1146892,20.1746987 C57.0937381,20.3345713 57.0313553,20.5154302 56.9273056,20.7168036 C56.8230204,20.9181771 56.6391678,21.0608363 56.3757478,21.1440738 C56.1118569,21.2275471 55.7580408,21.2692838 55.3140638,21.2692838 C54.8837405,21.2692838 54.5367511,21.2275471 54.2733311,21.1440738 C54.0096756,21.0608363 53.825823,20.9148759 53.7217733,20.7061926 C53.6177236,20.4977451 53.5553408,20.3138209 53.5343896,20.1537125 C53.5136738,19.9943114 53.5030805,19.7545025 53.5030805,19.4345215 L53.5030805,6.94582875 C53.5030805,6.62608351 53.5136738,6.38627457 53.5343896,6.22640195 C53.5553408,6.06676513 53.6177236,5.88236927 53.7217733,5.67368598 C53.825823,5.4652385 54.0096756,5.31927809 54.2733311,5.23604058 C54.5367511,5.15256726 54.8905673,5.1108306 55.335015,5.1108306 C55.6815336,5.1108306 55.9764981,5.14572905 56.2194378,5.21529015 C56.462142,5.28485125 56.6426989,5.36808876 56.7606377,5.4652385 C56.878341,5.56262403 56.9689725,5.70504743 57.0313553,5.89274449 C57.0937381,6.08044155 57.1281074,6.24031417 57.135405,6.37236235 C57.1422318,6.50464634 57.1457629,6.70248281 57.1457629,6.96657918 L57.1457629,13.5758265 C57.3955294,13.367379 57.773357,13.0127354 58.2801875,12.5123671 C58.7865472,12.0119988 59.1648457,11.6575909 59.4146121,11.4491434 L59.6643786,11.2821968 C60.1500225,10.9070384 60.5313813,10.7195772 60.8091611,10.7195772 C61.2255954,10.7195772 61.655448,10.9905118 62.0996603,11.5326167 C62.5575262,12.1162225 62.7865769,12.5680159 62.7865769,12.8877612 C62.7865769,13.2075064 62.5297483,13.5829005 62.0163264,14.0134719 L59.955812,15.7649968 Z" id="Fill-16"></path>
                        <path d="M17.2508813,24.0392067 C18.0693902,24.4006886 18.4789977,24.8385698 18.4789977,25.3526145 C18.4789977,25.57521 18.3747126,25.9088675 18.1666131,26.3533511 L18.1666131,26.3741015 C18.1527241,26.3882495 18.1458973,26.4021617 18.1458973,26.4158382 L12.692467,38.6338321 C12.5813551,38.8976927 12.4876633,39.0993019 12.4113915,39.2384241 C12.3351198,39.3770747 12.2136499,39.5093587 12.0472174,39.6345687 C11.8807849,39.7595429 11.6861036,39.8222657 11.4643506,39.8222657 C11.1865707,39.8222657 10.805212,39.7178062 10.3195681,39.5093587 C9.50058837,39.147641 9.09145163,38.7170696 9.09145163,38.2167013 C9.09145163,37.9943416 9.20232816,37.6328597 9.42455203,37.1324914 C9.93773851,35.9511318 10.4928274,34.7211973 11.0898186,33.4422163 L6.94760333,26.4575748 C6.66982349,25.9989432 6.53116898,25.6584475 6.53116898,25.4360878 C6.53116898,24.9913684 6.90593635,24.546649 7.6552357,24.1016937 C8.12699061,23.8236852 8.52953597,23.684563 8.86263637,23.684563 C9.05661144,23.684563 9.23716834,23.7402118 9.40383624,23.8515096 C9.57026874,23.9628074 9.69150316,24.0774063 9.76801032,24.1955423 C9.84404666,24.3136782 9.95845429,24.4976025 10.1114686,24.7480224 C11.3322875,26.8468812 12.2553169,28.4038707 12.8798507,29.4182837 C12.9490603,29.1961598 13.6150257,27.7016573 14.8779823,24.9357195 C14.9749699,24.7133598 15.0477105,24.5534872 15.0964397,24.4561016 C15.1449334,24.3589519 15.2214406,24.2443529 15.3254903,24.112069 C15.4295401,23.9800208 15.5441831,23.8864081 15.6689486,23.8305234 C15.7939496,23.7753461 15.9462577,23.7472859 16.1268146,23.7472859 C16.4319016,23.7472859 16.8066689,23.8446714 17.2508813,24.0392067" id="Fill-18"></path>
                        <path d="M23.6615927,30.9089662 C24.1055696,31.2496977 24.5566087,31.4197097 25.0144746,31.4197097 C25.4723406,31.4197097 25.9304419,31.2461607 26.3883078,30.898591 C26.8461737,30.5512571 27.0752244,30.0369766 27.0752244,29.3557495 C27.0752244,28.6747581 26.8598273,28.1673158 26.4299748,27.8336584 C25.9996514,27.5002367 25.5208343,27.3332901 24.9937589,27.3332901 C24.5217685,27.3332901 24.0707294,27.5073107 23.6408769,27.8546446 C23.2103181,28.2022143 22.9953919,28.7094208 22.9953919,29.3764999 C22.9953919,30.0579628 23.2173803,30.5687064 23.6615927,30.9089662 M25.0144746,23.6637654 C26.5408513,23.6637654 27.8798443,24.2028049 29.031689,25.279705 C30.1835337,26.3568409 30.7593384,27.7294346 30.7593384,29.3974861 C30.7593384,30.5512571 30.4608427,31.5762812 29.8643223,32.472794 C29.2675665,33.3693068 28.542514,34.0295478 27.6891649,34.4532809 C26.8358158,34.8774857 25.9579845,35.0894702 25.0561416,35.0894702 C24.1262854,35.0894702 23.2312693,34.8635735 22.3710935,34.4115443 C21.5104468,33.9599867 20.7856297,33.2929075 20.1959361,32.4100711 C19.606007,31.5277063 19.3112779,30.5305067 19.3112779,29.4182366 C19.3112779,27.750185 19.8941448,26.3742901 21.059643,25.2900802 C22.2253767,24.2058703 23.5436539,23.6637654 25.0144746,23.6637654" id="Fill-20"></path>
                        <path d="M36.9827602,34.8599893 C35.5809137,34.8599893 34.4189465,34.3282596 33.4961524,33.2648001 C32.5733584,32.2018123 32.1121968,30.9056179 32.1121968,29.3764527 L32.1121968,25.7276785 C32.1121968,25.3942568 32.1225547,25.1511467 32.1432705,24.9981123 C32.1642217,24.8453137 32.2266044,24.6646906 32.3306542,24.4560073 C32.4347039,24.2475598 32.6185565,24.1015994 32.8822119,24.0181261 C33.145632,23.9348886 33.4996835,23.8931519 33.9438959,23.8931519 C34.3045389,23.8931519 34.6027991,23.9280504 34.8389119,23.9973757 C35.0747894,24.0671726 35.2551109,24.1504101 35.3801118,24.2475598 C35.5048773,24.3449454 35.5985692,24.4873688 35.6609519,24.6750658 C35.7235701,24.8627629 35.7579395,25.0226355 35.7652371,25.1546837 C35.7718285,25.2867319 35.775595,25.4848041 35.775595,25.7486647 L35.775595,29.397439 C35.775595,29.9676042 35.9384964,30.4123236 36.26477,30.731833 C36.5905728,31.0518141 37.031254,31.2112151 37.5863429,31.2112151 C38.1275427,31.2112151 38.5679886,31.0445043 38.9081512,30.7108468 C39.2480784,30.3771893 39.418042,29.9395439 39.418042,29.397439 L39.418042,25.7071639 C39.418042,25.3874186 39.4286353,25.1478455 39.449351,24.9877371 C39.4700668,24.8281002 39.532685,24.6472414 39.6364993,24.4456321 C39.7407845,24.2442586 39.9244016,24.1015994 40.1882925,24.0181261 C40.4517125,23.9348886 40.8055287,23.8931519 41.249741,23.8931519 C41.679829,23.8931519 42.0268184,23.9348886 42.2904738,24.0181261 C42.5538938,24.1015994 42.7379818,24.2475598 42.8420316,24.4560073 C42.9463167,24.6646906 43.0086995,24.8490865 43.0294153,25.0087233 C43.050131,25.1683601 43.0607243,25.4084048 43.0607243,25.7276785 L43.0607243,33.1084645 C43.0607243,33.4145333 43.050131,33.6472683 43.0294153,33.8071409 C43.0086995,33.9670135 42.9425502,34.1443354 42.8316737,34.3386348 C42.7205617,34.5334059 42.5331781,34.6722923 42.269758,34.7557656 C42.0058672,34.8390031 41.6588778,34.8807398 41.2290253,34.8807398 C40.8128263,34.8807398 40.4724283,34.8390031 40.2090083,34.7557656 C39.9453528,34.6722923 39.7647959,34.5473181 39.6678084,34.3803715 C39.5705855,34.2136606 39.5117338,34.0747743 39.491018,33.9634765 C39.4700668,33.8524145 39.4597089,33.7062183 39.4597089,33.5255953 C39.4316955,33.567332 39.3937951,33.6163784 39.3453013,33.6715557 C39.2965721,33.7272046 39.192287,33.8316641 39.0329167,33.9842269 C38.873311,34.1374971 38.7033474,34.2730823 38.5230259,34.3909825 C38.342469,34.5091185 38.1136537,34.617115 37.8361093,34.7140289 C37.5583295,34.8114145 37.2741937,34.8599893 36.9827602,34.8599893" id="Fill-22"></path>
                        <path d="M20.7030255,48.7215587 C19.301179,48.7215587 17.9831372,48.332724 16.7481939,47.5541113 C16.4845385,47.3871647 16.3527108,47.1442903 16.3527108,46.8243093 C16.3527108,46.4213265 16.6161308,45.8513971 17.1436771,45.1145211 C17.2962206,44.8782492 17.532098,44.7601132 17.8513095,44.7601132 C18.2119524,44.7601132 18.6352136,44.9060736 19.1210929,45.1979944 C19.8007119,45.5873008 20.3767519,45.7816002 20.8487422,45.7816002 C21.6950291,45.7816002 22.1182903,45.6148894 22.1182903,45.2812319 C22.1182903,45.1425814 21.9864625,45.0242096 21.7230425,44.9268241 C21.4591517,44.8299101 21.1260513,44.753275 20.7237413,44.6976261 C20.321196,44.6422131 19.8875769,44.5276141 19.4228842,44.3535935 C18.9577207,44.1798086 18.524337,43.9678241 18.1220271,43.71764 C17.7192463,43.4674558 17.3863813,43.0750841 17.1229613,42.5395815 C16.8590705,42.0047864 16.7274781,41.3688329 16.7274781,40.6319569 C16.7274781,38.4359485 18.2329036,37.3378263 21.2442254,37.3378263 C22.2291668,37.3378263 23.242357,37.5743341 24.2830898,38.0466421 C24.7687337,38.2692376 25.0116733,38.5750707 25.0116733,38.9639054 C25.0116733,39.2421498 24.8659566,39.6175439 24.5745232,40.089852 C24.2550764,40.5902202 23.9361004,40.8404044 23.6171244,40.8404044 C23.4504565,40.8404044 23.2143436,40.7710791 22.909492,40.6319569 C22.3125007,40.3541841 21.7505851,40.2150619 21.2232742,40.2150619 C20.4042945,40.2150619 19.9953932,40.3680963 19.9953932,40.6736936 C19.9953932,40.8960533 20.1305166,41.0731393 20.4012342,41.2051875 C20.6717164,41.3377073 21.0116436,41.427783 21.4210158,41.4761221 C21.8303879,41.5251685 22.2708338,41.6190171 22.7428241,41.7579035 C23.2143436,41.8970257 23.6552602,42.0672735 24.0646324,42.268647 C24.4737691,42.4702563 24.8139317,42.8107519 25.084414,43.2903698 C25.3551316,43.7697519 25.490255,44.3571305 25.490255,45.0517982 C25.490255,45.8025865 25.3551316,46.4317017 25.084414,46.9389082 C24.8139317,47.4465864 24.4321022,47.8217447 23.9396315,48.0648548 C23.4469254,48.3082007 22.9473925,48.4784486 22.4410328,48.5755983 C21.9342023,48.6727481 21.3551019,48.7215587 20.7030255,48.7215587" id="Fill-24"></path>
                        <path d="M30.9645894,41.6952042 C30.645378,42.0705983 30.4857723,42.480655 30.4857723,42.9253745 C30.4857723,43.3703297 30.6489091,43.7768494 30.9749473,44.1451696 C31.3009855,44.5134897 31.7138888,44.6974139 32.2134217,44.6974139 C32.7266081,44.6974139 33.1604626,44.5170267 33.5145142,44.1555448 C33.8680949,43.7940629 34.0451207,43.3840061 34.0451207,42.9253745 C34.0451207,42.466507 33.8786882,42.0533849 33.5455878,41.6848289 C33.2124874,41.3167446 32.7823995,41.1323488 32.2550886,41.1323488 C31.7138888,41.1323488 31.2835654,41.31981 30.9645894,41.6952042 M26.8433253,51.5153446 L26.8433253,39.3393231 C26.8433253,39.0195778 26.8536832,38.7833059 26.874399,38.6302715 C26.8953502,38.4774729 26.9577329,38.3003869 27.0617827,38.0987776 C27.1658324,37.8974041 27.3428582,37.7547449 27.5926247,37.6715074 C27.8423911,37.5877983 28.1823183,37.5460616 28.6126416,37.5460616 C29.2369401,37.5460616 29.6773859,37.6401459 29.9342145,37.827843 C30.1908078,38.0153043 30.340291,38.2900116 30.3817226,38.6512577 C30.9090334,37.9285297 31.6999998,37.5670478 32.7546215,37.5670478 C33.9617868,37.5670478 35.0719645,38.1023146 36.0849193,39.1726123 C37.0978741,40.2429099 37.6044692,41.4730803 37.6044692,42.8628874 C37.6044692,44.3085792 37.1014052,45.5663381 36.0952772,46.6366358 C35.0891492,47.7069335 33.9756758,48.2419644 32.7546215,48.2419644 C31.6999998,48.2419644 30.9158602,47.922455 30.4026738,47.2827287 L30.4026738,51.4945941 C30.4026738,51.8141036 30.3920805,52.0503755 30.3713647,52.2031741 C30.3506489,52.3562085 30.2880307,52.5335304 30.183981,52.7349039 C30.0799312,52.9365131 29.9031409,53.0789365 29.6533744,53.1624099 C29.403608,53.2458832 29.06321,53.2876198 28.6333574,53.2876198 C28.2030341,53.2876198 27.8595758,53.2458832 27.6029826,53.1624099 C27.3461539,53.0789365 27.1658324,52.9400501 27.0617827,52.7455149 C26.9577329,52.5507438 26.8953502,52.376959 26.874399,52.2241604 C26.8536832,52.0711259 26.8433253,51.834854 26.8433253,51.5153446" id="Fill-26"></path>
                        <path d="M42.9951636,44.5411726 C43.4391405,44.8819041 43.8901797,45.0519161 44.3480456,45.0519161 C44.8059115,45.0519161 45.2640128,44.8783671 45.7218787,44.5307974 C46.1797447,44.1834635 46.4087953,43.669183 46.4087953,42.9879559 C46.4087953,42.3069645 46.1933982,41.7995222 45.7635457,41.4658648 C45.3332224,41.1324431 44.8544053,40.9654965 44.3273298,40.9654965 C43.8553395,40.9654965 43.4043003,41.1395171 42.9744478,41.486851 C42.5438891,41.8344207 42.3289628,42.3416272 42.3289628,43.0087063 C42.3289628,43.6901692 42.5509513,44.2009128 42.9951636,44.5411726 M44.3480456,37.2959718 C45.8744222,37.2959718 47.2134152,37.8350113 48.3652599,38.9119114 C49.5171046,39.9890473 50.0929093,41.361641 50.0929093,43.0296925 C50.0929093,44.1834635 49.7944137,45.2084875 49.1978932,46.1050004 C48.6011374,47.0015132 47.8760849,47.6617541 47.0227358,48.0854873 C46.1693868,48.5096921 45.2915554,48.7216766 44.3897125,48.7216766 C43.4598563,48.7216766 42.5648403,48.4957799 41.7046644,48.0437507 C40.8440177,47.5921931 40.1192006,46.9251139 39.529507,46.0422775 C38.939578,45.1599127 38.6448488,44.1627131 38.6448488,43.050443 C38.6448488,41.3823914 39.2277157,40.0064965 40.393214,38.9222866 C41.5589477,37.8380767 42.8772249,37.2959718 44.3480456,37.2959718" id="Fill-28"></path>
                        <path d="M59.495592,39.377735 L61.5930652,39.377735 C61.9555914,39.377735 62.2230134,39.390704 62.3958019,39.416642 C62.5681195,39.4425801 62.7668027,39.5163856 62.9913807,39.6371153 C63.2154878,39.7583167 63.3753289,39.965821 63.4704332,40.2596282 C63.5650667,40.553907 63.6128542,40.9514663 63.6128542,41.4527778 C63.6128542,41.9371117 63.5695394,42.3261823 63.4833806,42.6199895 C63.3967509,42.9142683 63.250328,43.1172923 63.0431701,43.2295333 C62.8360123,43.3420101 62.6502765,43.4110996 62.4864334,43.4370376 C62.3221196,43.4629756 62.067645,43.4759446 61.7225389,43.4759446 L59.495592,43.4759446 L59.495592,45.5769256 C59.495592,45.9400581 59.4826447,46.2083988 59.4567499,46.3810047 C59.4308552,46.5540821 59.3571729,46.7530976 59.2366447,46.9775795 C59.1156457,47.202533 58.9084879,47.3626414 58.6151712,47.4574332 C58.3213837,47.5526965 57.9244881,47.6000924 57.4240136,47.6000924 C56.9404883,47.6000924 56.5520674,47.5526965 56.2587507,47.4574332 C55.9649632,47.3626414 55.7622781,47.202533 55.6502245,46.9775795 C55.5377001,46.7530976 55.4689614,46.5496019 55.4430667,46.3682715 C55.4171719,46.1864694 55.4042246,45.91412 55.4042246,45.5509875 L55.4042246,43.4759446 L53.151383,43.4759446 C52.8058061,43.4759446 52.5513315,43.4629756 52.3874885,43.4370376 C52.2231746,43.4110996 52.0379096,43.3420101 51.8307517,43.2295333 C51.6235939,43.1172923 51.4767002,42.9097881 51.3905413,42.6070204 C51.3039117,42.3047244 51.2610677,41.9111737 51.2610677,41.4268398 C51.2610677,40.9429775 51.3083844,40.5494268 51.4034887,40.246895 C51.4981222,39.9443632 51.662436,39.7366231 51.8954886,39.6241463 C52.1285411,39.5119054 52.335699,39.4425801 52.5169621,39.416642 C52.6982252,39.390704 52.9701199,39.377735 53.3326461,39.377735 L55.4042246,39.377735 L55.4042246,37.2767541 C55.4042246,36.9136215 55.4171719,36.6457524 55.4430667,36.4726749 C55.4689614,36.3000691 55.5377001,36.1010536 55.6502245,35.8761001 C55.7622781,35.6516182 55.9694359,35.4915098 56.2716981,35.3962464 C56.5734894,35.3014547 56.9663831,35.2535872 57.4499083,35.2535872 C57.9329627,35.2535872 58.3258564,35.3014547 58.6281186,35.3962464 C58.9299099,35.4915098 59.1370677,35.6516182 59.2495921,35.8761001 C59.3616457,36.1010536 59.4308552,36.3040777 59.4567499,36.485644 C59.4826447,36.6672102 59.495592,36.9395596 59.495592,37.3026921 L59.495592,39.377735 Z" id="Fill-30"></path>
                        <path d="M3.27810812,7.76436242 L3.94101323,7.76436242 C4.05565626,7.76436242 4.14016725,7.76837103 4.19478159,7.77662404 C4.24916052,7.78487705 4.3120141,7.80822128 4.3828715,7.84642094 C4.4537289,7.88462059 4.50434133,7.95017308 4.53423797,8.04307841 C4.56437002,8.13598374 4.57943604,8.26166531 4.57943604,8.42012313 C4.57943604,8.57339334 4.56578246,8.69624531 4.53847529,8.78915064 C4.51116812,8.88205597 4.46479301,8.94619366 4.39934996,8.98156371 C4.33390692,9.01716956 4.27505526,9.03909899 4.2235012,9.0471162 C4.17147633,9.05560501 4.09096726,9.05961362 3.98197399,9.05961362 L3.27810812,9.05961362 L3.27810812,9.72362734 C3.27810812,9.8384621 3.2738708,9.92311442 3.26586698,9.97782009 C3.25762775,10.0325258 3.23432249,10.0954845 3.19618661,10.1664604 C3.15805074,10.2374363 3.09237228,10.2878975 2.99985747,10.31808 C2.90687185,10.3480266 2.78163551,10.3631178 2.62320684,10.3631178 C2.47042793,10.3631178 2.34778107,10.3480266 2.25503085,10.31808 C2.16228064,10.2878975 2.09801462,10.2374363 2.06270363,10.1664604 C2.02715722,10.0954845 2.00549981,10.0308752 1.99726058,9.97357569 C1.98902135,9.91627621 1.98501943,9.83020909 1.98501943,9.71537433 L1.98501943,9.05961362 L1.27291434,9.05961362 C1.16368566,9.05961362 1.08317659,9.05560501 1.03138712,9.0471162 C0.979597663,9.03909899 0.920981409,9.01716956 0.855538362,8.98156371 C0.790095315,8.94619366 0.7434848,8.88064117 0.716413036,8.78490624 C0.688870459,8.68940711 0.67545228,8.56514033 0.67545228,8.41187012 C0.67545228,8.25907151 0.690282899,8.13456894 0.720414949,8.038834 C0.750311593,7.94333487 0.802336461,7.87778238 0.87601874,7.84217653 C0.949465612,7.80680648 1.01514407,7.78487705 1.07234788,7.77662404 C1.1297871,7.76837103 1.21547512,7.76436242 1.33011815,7.76436242 L1.98501943,7.76436242 L1.98501943,7.1003487 C1.98501943,6.98551394 1.98902135,6.90086163 1.99726058,6.84592015 C2.00549981,6.79145027 2.02715722,6.72849159 2.06270363,6.65751569 C2.09801462,6.58653979 2.16369308,6.53607852 2.25903277,6.50589608 C2.35460786,6.47594944 2.47866716,6.46085822 2.63144608,6.46085822 C2.78422499,6.46085822 2.90828429,6.47594944 3.00385938,6.50589608 C3.09919907,6.53607852 3.16487753,6.58653979 3.20018852,6.65751569 C3.23573493,6.72849159 3.25762775,6.79286508 3.26586698,6.85016456 C3.2738708,6.90746404 3.27810812,6.99353115 3.27810812,7.10860171 L3.27810812,7.76436242 Z" id="Fill-32"></path>
                        <path d="M1.07439592,0.590184638 L1.32816428,0.590184638 C1.37194991,0.590184638 1.40420062,0.59183524 1.42515182,0.595136445 C1.44610301,0.597966049 1.47011448,0.606926461 1.49718625,0.621781882 C1.52449342,0.636165702 1.54379676,0.661396337 1.55509628,0.697002186 C1.56663121,0.732608036 1.57251637,0.780711302 1.57251637,0.841076186 C1.57251637,0.899790467 1.56710202,0.946950533 1.55674413,0.982320582 C1.54615083,1.01792643 1.52849533,1.04268547 1.50354223,1.05636188 C1.47835372,1.0698025 1.45599009,1.07805551 1.43621593,1.08135672 C1.41644177,1.08442212 1.3856035,1.08607273 1.34370112,1.08607273 L1.07439592,1.08607273 L1.07439592,1.34026548 C1.07439592,1.38388854 1.07274807,1.41642898 1.06968778,1.43741521 C1.0666275,1.45840144 1.05768205,1.48245307 1.04308683,1.50933431 C1.02849162,1.53692295 1.00330311,1.55625858 0.967756709,1.56781279 C0.932210306,1.57913121 0.884422757,1.58479042 0.82392325,1.58479042 C0.765306996,1.58479042 0.718225667,1.57913121 0.682914671,1.56781279 C0.647368268,1.55625858 0.622885977,1.53692295 0.609232392,1.50933431 C0.595578806,1.48245307 0.587339574,1.45792984 0.584043881,1.43576461 C0.580983594,1.41383518 0.579335748,1.38105893 0.579335748,1.33696427 L0.579335748,1.08607273 L0.306970262,1.08607273 C0.26506788,1.08607273 0.234465016,1.08442212 0.214690858,1.08135672 C0.194681294,1.07805551 0.172317663,1.0698025 0.147364558,1.05636188 C0.122176048,1.04268547 0.104285143,1.01745483 0.0939272505,0.98090578 C0.0835693582,0.944356729 0.0783904121,0.896725063 0.0783904121,0.838246582 C0.0783904121,0.779532301 0.0840401715,0.732136435 0.095575097,0.695351584 C0.107110022,0.658802533 0.12688418,0.633807699 0.155132978,0.62013128 C0.183146368,0.606454861 0.208334879,0.597966049 0.230227697,0.595136445 C0.252120514,0.59183524 0.285077444,0.590184638 0.32886308,0.590184638 L0.579335748,0.590184638 L0.579335748,0.336227686 C0.579335748,0.292133025 0.580983594,0.25982838 0.584043881,0.238842151 C0.587339574,0.218091722 0.595578806,0.193804289 0.609232392,0.166687251 C0.622885977,0.139570213 0.647839081,0.120234587 0.684327111,0.108680371 C0.721050547,0.0971261546 0.768367282,0.0914669468 0.826983536,0.0914669468 C0.885364384,0.0914669468 0.932916525,0.0971261546 0.969404555,0.108680371 C1.00589258,0.120234587 1.0310811,0.139570213 1.04473468,0.166687251 C1.05815286,0.193804289 1.0666275,0.218563323 1.06968778,0.240492753 C1.07274807,0.262186383 1.07439592,0.295198429 1.07439592,0.33929309 L1.07439592,0.590184638 Z" id="Fill-34"></path>
                        <path d="M6.28931219,2.16941017 L6.82933503,2.16941017 C6.92279147,2.16941017 6.99176562,2.17271137 7.03625747,2.17931378 C7.08051392,2.18591619 7.13183257,2.20501602 7.1895072,2.23614166 C7.24718182,2.2675031 7.28861339,2.32102978 7.31309568,2.39648588 C7.33734257,2.47217779 7.34958371,2.57475093 7.34958371,2.70396951 C7.34958371,2.82847208 7.3385196,2.92868722 7.31639138,3.00437912 C7.29402775,3.08007103 7.25612728,3.1324187 7.20292538,3.16142214 C7.14948807,3.19042558 7.10170052,3.20811061 7.05956273,3.21494882 C7.01718953,3.22155123 6.95174649,3.22485243 6.86276278,3.22485243 L6.28931219,3.22485243 L6.28931219,3.76601418 C6.28931219,3.85939111 6.2860165,3.92848061 6.27942512,3.97281107 C6.27259832,4.01761313 6.25376579,4.0687818 6.22269211,4.12655288 C6.19138303,4.18455976 6.13818113,4.22582482 6.0626156,4.25011225 C5.98681466,4.27487129 5.88464818,4.2868971 5.75588074,4.2868971 C5.63135063,4.2868971 5.5313028,4.27487129 5.45573727,4.25011225 C5.38017174,4.22582482 5.32791147,4.18455976 5.29895645,4.12655288 C5.27000143,4.0687818 5.25234593,4.01643413 5.24551914,3.96974566 C5.23892775,3.9230572 5.23563206,3.8527887 5.23563206,3.75917597 L5.23563206,3.22485243 L4.65559009,3.22485243 C4.56660638,3.22485243 4.50092793,3.22155123 4.45879014,3.21494882 C4.41641694,3.20811061 4.3686294,3.19042558 4.31542749,3.16142214 C4.26199019,3.1324187 4.22432512,3.07889203 4.20196149,3.00107792 C4.17983327,2.92302801 4.16853375,2.82186967 4.16853375,2.6971313 C4.16853375,2.57239293 4.18077489,2.47099879 4.20525719,2.39318468 C4.22973948,2.31537057 4.27211267,2.2620797 4.33214137,2.23307626 C4.39193465,2.20383701 4.44537196,2.18591619 4.49198248,2.17931378 C4.53859299,2.17271137 4.60874417,2.16941017 4.70220061,2.16941017 L5.23563206,2.16941017 L5.23563206,1.62824842 C5.23563206,1.53487149 5.23892775,1.46601779 5.24551914,1.42121573 C5.25234593,1.37688527 5.27000143,1.3254808 5.29895645,1.26770972 C5.32791147,1.20993864 5.38134877,1.16867358 5.45903297,1.14391455 C5.53671716,1.11962711 5.63794201,1.1073655 5.76247213,1.1073655 C5.88700224,1.1073655 5.98799169,1.11962711 6.06591129,1.14391455 C6.14359548,1.16867358 6.19703279,1.20993864 6.22598781,1.26770972 C6.25494282,1.3254808 6.27259832,1.37782847 6.27942512,1.42451693 C6.2860165,1.4714412 6.28931219,1.5414739 6.28931219,1.63485083 L6.28931219,2.16941017 Z" id="Fill-36"></path>
                        <path d="M10.7996328,4.50232428 L11.2374892,4.50232428 C11.3132901,4.50232428 11.3690815,4.50515389 11.4050987,4.51057729 C11.441116,4.5160007 11.4825475,4.53132772 11.5293934,4.55632256 C11.5762394,4.58178899 11.6094317,4.62517625 11.6294413,4.68648434 C11.6492154,4.74802822 11.6591025,4.83102994 11.6591025,4.93572528 C11.6591025,5.03688362 11.650157,5.11776313 11.6322661,5.17930702 C11.6139044,5.2406151 11.583537,5.28305916 11.5402221,5.3064034 C11.4969073,5.32998343 11.4580652,5.34436725 11.4239313,5.34979066 C11.3897973,5.35521406 11.3365954,5.35804367 11.264561,5.35804367 L10.7996328,5.35804367 L10.7996328,5.79639647 C10.7996328,5.87255998 10.796808,5.92844466 10.7913936,5.96428631 C10.7859793,6.00059956 10.7706778,6.04210042 10.7457247,6.08902468 C10.7203008,6.13594895 10.676986,6.16919679 10.6157803,6.18900402 C10.5545745,6.20881125 10.4717114,6.21871486 10.3671908,6.21871486 C10.2662014,6.21871486 10.1852215,6.20881125 10.1237804,6.18900402 C10.0625747,6.16919679 10.0202015,6.13594895 9.9968962,6.08902468 C9.97335553,6.04210042 9.95899573,5.99965636 9.95358137,5.9616925 C9.94816702,5.92372865 9.94557755,5.86690077 9.94557755,5.79120887 L9.94557755,5.35804367 L9.47523508,5.35804367 C9.40296524,5.35804367 9.34999874,5.35521406 9.31562937,5.34979066 C9.28149541,5.34436725 9.24288872,5.32998343 9.1995739,5.3064034 C9.15625908,5.28305916 9.12565621,5.2396719 9.10776531,5.17647742 C9.089639,5.11351873 9.08069354,5.03122441 9.08069354,4.93006607 C9.08069354,4.82914353 9.09058062,4.74708502 9.11035478,4.68389053 C9.13012894,4.62069605 9.16449831,4.57730879 9.21299208,4.55396455 C9.26172125,4.53038452 9.30480067,4.5160007 9.34293654,4.51057729 C9.38060161,4.50515389 9.43733461,4.50232428 9.51313555,4.50232428 L9.94557755,4.50232428 L9.94557755,4.06397147 C9.94557755,3.98780797 9.94816702,3.93215909 9.95358137,3.89608164 C9.95899573,3.85976839 9.97335553,3.81850333 9.9968962,3.77134327 C10.0202015,3.724419 10.0635163,3.69117116 10.1266053,3.67136393 C10.1896942,3.6515567 10.2716157,3.64165309 10.3726052,3.64165309 C10.4733592,3.64165309 10.5555162,3.6515567 10.6186051,3.67136393 C10.6816941,3.69117116 10.7247735,3.724419 10.7483142,3.77134327 C10.7716195,3.81850333 10.7859793,3.86071159 10.7913936,3.89843964 C10.796808,3.9366393 10.7996328,3.99346718 10.7996328,4.06915908 L10.7996328,4.50232428 Z" id="Fill-38"></path>
                        <path d="M61.1881423,31.5801954 L61.8510474,31.5801954 C61.9656904,31.5801954 62.0502014,31.584204 62.1048157,31.5924571 C62.1591947,31.6007101 62.2220482,31.6240543 62.2929056,31.662254 C62.363763,31.7004536 62.4143755,31.7660061 62.4442721,31.8589114 C62.4744041,31.9518168 62.4894702,32.0774983 62.4894702,32.2359561 C62.4894702,32.3892264 62.4758166,32.5120783 62.4485094,32.6049837 C62.4212022,32.697889 62.3748271,32.7620267 62.3093841,32.7973967 C62.243941,32.8330026 62.1850894,32.854932 62.1335353,32.8629492 C62.0815105,32.871438 62.0010014,32.8754466 61.8920081,32.8754466 L61.1881423,32.8754466 L61.1881423,33.5394604 C61.1881423,33.6542951 61.1839049,33.7389474 61.1759011,33.7936531 C61.1676619,33.8483588 61.1443566,33.9113175 61.1062207,33.9822934 C61.0680849,34.0532693 61.0024064,34.1037305 60.9098916,34.133913 C60.816906,34.1638596 60.6916696,34.1789508 60.533241,34.1789508 C60.3804621,34.1789508 60.2578152,34.1638596 60.165065,34.133913 C60.0723148,34.1037305 60.0080488,34.0532693 59.9727378,33.9822934 C59.9371914,33.9113175 59.9155339,33.8467082 59.9072947,33.7894087 C59.8990555,33.7321092 59.8950536,33.6460421 59.8950536,33.5312073 L59.8950536,32.8754466 L59.1829485,32.8754466 C59.0737198,32.8754466 58.9932107,32.871438 58.9414213,32.8629492 C58.8896318,32.854932 58.8310155,32.8330026 58.7655725,32.7973967 C58.7001294,32.7620267 58.6535189,32.6964742 58.6264472,32.6007393 C58.5989046,32.5052401 58.5854864,32.3809733 58.5854864,32.2277031 C58.5854864,32.0749045 58.600317,31.9504019 58.6304491,31.854667 C58.6603457,31.7591679 58.7123706,31.6936154 58.7860529,31.6580095 C58.8594997,31.6226395 58.9251782,31.6007101 58.982382,31.5924571 C59.0398212,31.584204 59.1255092,31.5801954 59.2401523,31.5801954 L59.8950536,31.5801954 L59.8950536,30.9161817 C59.8950536,30.801347 59.8990555,30.7166946 59.9072947,30.6617532 C59.9155339,30.6072833 59.9371914,30.5443246 59.9727378,30.4733487 C60.0080488,30.4023728 60.0737272,30.3519115 60.1690669,30.3217291 C60.264642,30.2917825 60.3887013,30.2766912 60.5414802,30.2766912 C60.6942591,30.2766912 60.8183184,30.2917825 60.9138935,30.3217291 C61.0092332,30.3519115 61.0749117,30.4023728 61.1102227,30.4733487 C61.1457691,30.5443246 61.1676619,30.6086981 61.1759011,30.6659976 C61.1839049,30.723297 61.1881423,30.8093642 61.1881423,30.9244347 L61.1881423,31.5801954 Z" id="Fill-40"></path>
                        <path d="M55.4893005,30.7012497 L56.0293234,30.7012497 C56.1227798,30.7012497 56.191754,30.7045509 56.2362458,30.7111533 C56.2805023,30.7177557 56.3318209,30.7368556 56.3894955,30.7679812 C56.4471702,30.7993427 56.4886017,30.8528693 56.513084,30.9283254 C56.5373309,31.0040173 56.5495721,31.1065905 56.5495721,31.2358091 C56.5495721,31.3603116 56.5385079,31.4605268 56.5163797,31.5362187 C56.4940161,31.6119106 56.4561156,31.6642583 56.4029137,31.6932617 C56.3494764,31.7222651 56.3016889,31.7399502 56.2595511,31.7467884 C56.2171779,31.7533908 56.1517348,31.756692 56.0627511,31.756692 L55.4893005,31.756692 L55.4893005,32.2978537 C55.4893005,32.3912307 55.4860048,32.4603202 55.4794135,32.5046506 C55.4725867,32.5494527 55.4537541,32.6006214 55.4226805,32.6583924 C55.3913714,32.7163993 55.3381695,32.7576644 55.2626039,32.7819518 C55.186803,32.8067108 55.0846365,32.8187367 54.9558691,32.8187367 C54.831339,32.8187367 54.7312912,32.8067108 54.6557256,32.7819518 C54.5801601,32.7576644 54.5278998,32.7163993 54.4989448,32.6583924 C54.4699898,32.6006214 54.4523343,32.5482737 54.4455075,32.5015852 C54.4389161,32.4548967 54.4356204,32.3846283 54.4356204,32.2910155 L54.4356204,31.756692 L53.8555784,31.756692 C53.7665947,31.756692 53.7009163,31.7533908 53.6587785,31.7467884 C53.6164053,31.7399502 53.5686177,31.7222651 53.5154158,31.6932617 C53.4619785,31.6642583 53.4243135,31.6107316 53.4019498,31.5329175 C53.3798216,31.4548676 53.3685221,31.3537092 53.3685221,31.2289708 C53.3685221,31.1042325 53.3807632,31.0028383 53.4052455,30.9250242 C53.4297278,30.8472101 53.472101,30.7939192 53.5321297,30.7649158 C53.591923,30.7356766 53.6453603,30.7177557 53.6919708,30.7111533 C53.7385813,30.7045509 53.8087325,30.7012497 53.902189,30.7012497 L54.4356204,30.7012497 L54.4356204,30.160088 C54.4356204,30.066711 54.4389161,29.9978573 54.4455075,29.9530553 C54.4523343,29.9087248 54.4699898,29.8573203 54.4989448,29.7995493 C54.5278998,29.7417782 54.5813371,29.7005131 54.6590213,29.6757541 C54.7367055,29.6514667 54.8379304,29.639205 54.9624605,29.639205 C55.0869906,29.639205 55.18798,29.6514667 55.2658996,29.6757541 C55.3435838,29.7005131 55.3970211,29.7417782 55.4259762,29.7995493 C55.4549312,29.8573203 55.4725867,29.909668 55.4794135,29.9563565 C55.4860048,30.0032808 55.4893005,30.0733134 55.4893005,30.1666904 L55.4893005,30.7012497 Z" id="Fill-42"></path>
                        <path d="M57.1747415,25.252753 L57.6125978,25.252753 C57.6883988,25.252753 57.7441902,25.2555826 57.7802074,25.2610061 C57.8162246,25.2664295 57.8576562,25.2817565 57.9045021,25.3067513 C57.951348,25.3322178 57.9845403,25.375605 58.0045499,25.4369131 C58.0243241,25.498457 58.0342111,25.5814587 58.0342111,25.686154 C58.0342111,25.7873124 58.0252657,25.8681919 58.0073748,25.9297358 C57.9890131,25.9910439 57.9586456,26.0334879 57.9153308,26.0568322 C57.872016,26.0804122 57.8331739,26.094796 57.7990399,26.1002194 C57.7649059,26.1056428 57.711704,26.1084724 57.6396696,26.1084724 L57.1747415,26.1084724 L57.1747415,26.5468252 C57.1747415,26.6229887 57.1719166,26.6788734 57.1665022,26.7147151 C57.1610879,26.7510283 57.1457865,26.7925292 57.1208334,26.8394534 C57.0954094,26.8863777 57.0520946,26.9196256 56.9908889,26.9394328 C56.9296832,26.95924 56.84682,26.9691436 56.7422995,26.9691436 C56.64131,26.9691436 56.5603301,26.95924 56.498889,26.9394328 C56.4376833,26.9196256 56.3953101,26.8863777 56.3720048,26.8394534 C56.3484642,26.7925292 56.3341044,26.7500851 56.32869,26.7121213 C56.3232757,26.6741574 56.3206862,26.6173295 56.3206862,26.5416376 L56.3206862,26.1084724 L55.8503437,26.1084724 C55.7780739,26.1084724 55.7251074,26.1056428 55.690738,26.1002194 C55.656604,26.094796 55.6179974,26.0804122 55.5746825,26.0568322 C55.5313677,26.0334879 55.5007648,25.9901007 55.4828739,25.9269062 C55.4647476,25.8639475 55.4558022,25.7816532 55.4558022,25.6804948 C55.4558022,25.5795723 55.4656893,25.4975138 55.4854634,25.4343193 C55.5052376,25.3711248 55.5396069,25.3277375 55.5881007,25.3043933 C55.6368299,25.2808133 55.6799093,25.2664295 55.7180452,25.2610061 C55.7557102,25.2555826 55.8124432,25.252753 55.8882442,25.252753 L56.3206862,25.252753 L56.3206862,24.8144002 C56.3206862,24.7382367 56.3232757,24.6825879 56.32869,24.6465104 C56.3341044,24.6101972 56.3484642,24.5689321 56.3720048,24.521772 C56.3953101,24.4748478 56.4386249,24.4415999 56.5017139,24.4217927 C56.5648029,24.4019855 56.6467244,24.3920819 56.7477138,24.3920819 C56.8484679,24.3920819 56.9306248,24.4019855 56.9937138,24.4217927 C57.0568028,24.4415999 57.0998822,24.4748478 57.1234228,24.521772 C57.1467281,24.5689321 57.1610879,24.6111404 57.1665022,24.6488684 C57.1719166,24.6870681 57.1747415,24.7438959 57.1747415,24.8195878 L57.1747415,25.252753 Z" id="Fill-44"></path>
                        <path d="M52.1576374,26.7640209 L52.4114058,26.7640209 C52.4551914,26.7640209 52.4874421,26.7656715 52.5083933,26.7689727 C52.5293445,26.7718023 52.553356,26.7807627 52.5804277,26.7956182 C52.6077349,26.810002 52.6270383,26.8352326 52.6383378,26.8708385 C52.6498727,26.9064443 52.6557579,26.9545476 52.6557579,27.0149125 C52.6557579,27.0736267 52.6503435,27.1207868 52.6399856,27.1561569 C52.6293923,27.1917627 52.6117368,27.2165217 52.5867837,27.2301982 C52.5615952,27.2436388 52.5392316,27.2518918 52.5194574,27.255193 C52.4996833,27.2582584 52.468845,27.259909 52.4269426,27.259909 L52.1576374,27.259909 L52.1576374,27.5141018 C52.1576374,27.5577248 52.1559896,27.5902653 52.1529293,27.6112515 C52.149869,27.6322377 52.1409235,27.6562894 52.1263283,27.6831706 C52.1117331,27.7107592 52.0865446,27.7300949 52.0509982,27.7416491 C52.0154518,27.7529675 51.9676642,27.7586267 51.9071647,27.7586267 C51.8485485,27.7586267 51.8014672,27.7529675 51.7661562,27.7416491 C51.7306098,27.7300949 51.7061275,27.7107592 51.6924739,27.6831706 C51.6788203,27.6562894 51.6705811,27.6317661 51.6672854,27.6096009 C51.6642251,27.5876715 51.6625772,27.5548952 51.6625772,27.5108006 L51.6625772,27.259909 L51.3902118,27.259909 C51.3483094,27.259909 51.3177065,27.2582584 51.2979323,27.255193 C51.2779228,27.2518918 51.2555592,27.2436388 51.230606,27.2301982 C51.2054175,27.2165217 51.1875266,27.1912911 51.1771687,27.1547421 C51.1668108,27.118193 51.1616319,27.0705613 51.1616319,27.0120829 C51.1616319,26.9533686 51.1672817,26.9059727 51.1788166,26.8691879 C51.1903515,26.8326388 51.2101257,26.807644 51.2383745,26.7939676 C51.2663879,26.7802911 51.2915764,26.7718023 51.3134692,26.7689727 C51.335362,26.7656715 51.3683189,26.7640209 51.4121046,26.7640209 L51.6625772,26.7640209 L51.6625772,26.510064 C51.6625772,26.4659693 51.6642251,26.4336647 51.6672854,26.4126784 C51.6705811,26.391928 51.6788203,26.3676406 51.6924739,26.3405235 C51.7061275,26.3134065 51.7310806,26.2940709 51.7675686,26.2825167 C51.804292,26.2709624 51.8516088,26.2653032 51.910225,26.2653032 C51.9686059,26.2653032 52.016158,26.2709624 52.052646,26.2825167 C52.0891341,26.2940709 52.1143226,26.3134065 52.1279762,26.3405235 C52.1413943,26.3676406 52.149869,26.3923996 52.1529293,26.414329 C52.1559896,26.4360227 52.1576374,26.4690347 52.1576374,26.5131294 L52.1576374,26.7640209 Z" id="Fill-46"></path>
                    </g>
                </g>
            </g>
        </g>
    </g>
</svg>