<?xml version="1.0" encoding="UTF-8"?>
<svg width="452px" height="452px" viewBox="0 0 452 452" version="1.1" xmlns="http://www.w3.org/2000/svg" xmlns:xlink="http://www.w3.org/1999/xlink">
    <!-- Generator: Sketch 46.1 (44463) - http://www.bohemiancoding.com/sketch -->
    <title>Group 4</title>
    <desc>Created with Sketch.</desc>
    <defs>
        <circle id="path-1" cx="226" cy="226" r="226"></circle>
        <polygon id="path-3" points="187.04384 315.978918 187.04384 0.0635767636 0.639488 0.0635767636 0.639488 315.978918 187.04384 315.978918"></polygon>
        <polygon id="path-5" points="0 701.514691 351.52384 701.514691 351.52384 0.61725633 0 0.61725633"></polygon>
    </defs>
    <g id="Page-1" stroke="none" stroke-width="1" fill="none" fill-rule="evenodd">
        <g id="Desktop-HD-Copy" transform="translate(-825.000000, -261.000000)">
            <g id="Group-4" transform="translate(825.000000, 261.000000)">
                <mask id="mask-2" fill="white">
                    <use xlink:href="#path-1"></use>
                </mask>
                <use id="Oval-4" fill="#FFFFFF" xlink:href="#path-1"></use>
                <g id="Page-1" mask="url(#mask-2)">
                    <g transform="translate(50.000000, 37.000000)">
                        <g id="Group-22" stroke-width="1" fill="none" transform="translate(0.000000, 226.623076)">
                            <path d="M183.890944,30.7029809 L89.154944,0.0635767636 C89.154944,0.0635767636 29.071104,50.1941102 14.569344,184.6762 C12.258304,189.927028 9.220224,195.380842 6.039424,197.053881 L10.247424,197.053881 C10.247424,197.053881 -0.312576,217.48015 0.007424,221.629236 L6.039424,216.363089 C6.039424,216.363089 0.812544,239.159444 6.873344,252.123742 C5.172864,278.158937 5.714944,301.987457 11.913344,310.994165 C11.913344,310.994165 16.743424,319.611498 18.295424,314.18577 C19.847424,308.760042 18.295424,302.376833 18.295424,302.376833 C18.295424,302.376833 23.047424,313.866609 28.167424,312.270807 C33.287424,310.675005 28.167424,291.206217 28.167424,291.206217 C28.167424,291.206217 33.607424,304.930116 39.367424,302.376833 C45.127424,299.823549 39.367424,280.035601 39.367424,280.035601 L44.807424,263.439257 C44.807424,263.439257 42.247424,279.71644 47.047424,280.035601 C51.847424,280.354761 63.367424,259.290171 50.567424,245.885431 C50.567424,245.885431 46.505344,242.716806 40.338304,240.423319 L40.359424,240.352466 C45.954944,231.66045 55.469184,213.901085 53.892864,195.610637 L74.887424,126.200259 C74.887424,126.200259 77.181184,233.438173 82.114304,258.332689 L186.404864,271.737429 L183.890944,30.7029809 Z" id="Fill-1" fill="#F27835"></path>
                            <g id="Group-5" transform="translate(164.480000, 0.000000)">
                                <mask id="mask-4" fill="white">
                                    <use xlink:href="#path-3"></use>
                                </mask>
                                <g id="Clip-4"></g>
                                <path d="M3.153408,30.7029809 L97.889408,0.0635767636 C97.889408,0.0635767636 157.973248,50.1941102 172.475008,184.6762 C174.786048,189.927028 177.824768,195.380842 181.004928,197.053881 L176.796928,197.053881 C176.796928,197.053881 187.356928,217.48015 187.036928,221.629236 L181.004928,216.363089 C181.004928,216.363089 186.232448,239.159444 180.171008,252.123742 C181.871488,278.158937 181.329408,301.987457 175.131008,310.994165 C175.131008,310.994165 170.300928,319.611498 168.748928,314.18577 C167.196928,308.760042 168.748928,302.376833 168.748928,302.376833 C168.748928,302.376833 163.996928,313.866609 158.876928,312.270807 C153.756928,310.675005 158.876928,291.206217 158.876928,291.206217 C158.876928,291.206217 153.436928,304.930116 147.676928,302.376833 C141.916928,299.823549 147.676928,280.035601 147.676928,280.035601 L142.236928,263.439257 C142.236928,263.439257 144.796928,279.71644 139.996928,280.035601 C135.196928,280.354761 123.676928,259.290171 136.476928,245.885431 C136.476928,245.885431 140.539008,242.716806 146.706048,240.423319 L146.684928,240.352466 C141.089408,231.66045 131.574528,213.901085 133.151488,195.610637 L112.156928,126.200259 C112.156928,126.200259 109.863168,233.438173 104.930048,258.332689 L0.639488,271.737429 L3.153408,30.7029809 Z" id="Fill-3" fill="#F27835" mask="url(#mask-4)"></path>
                            </g>
                            <path d="M18.9872,153.346643 C18.9872,153.346643 41.50112,158.116815 47.79424,163.861704 C47.79424,163.861704 21.40576,162.370586 16.94688,165.988589 L18.9872,153.346643 Z" id="Fill-10" fill="#4E2F1B"></path>
                            <path d="M332.597184,153.346643 C332.597184,153.346643 310.083264,158.116815 303.790144,163.861704 C303.790144,163.861704 330.178624,162.370586 334.637504,165.988589 L332.597184,153.346643 Z" id="Fill-16" fill="#4E2F1B"></path>
                        </g>
                        <g id="Group-127" stroke-width="1" fill="none" transform="translate(13.440000, 220.239867)">
                            <path d="M177.927168,264.092833 L197.980928,264.092833 L197.980928,23.2039229 C190.443008,25.2044207 183.619328,26.507872 177.927168,27.3574772 L177.927168,264.092833 Z" id="Fill-101" fill="#FEFEFE"></path>
                            <path d="M223.580928,14.3220065 C216.644608,17.3412644 209.886208,19.7381595 203.527168,21.6397175 L203.527168,264.092514 L223.580928,264.092514 L223.580928,14.3220065 Z" id="Fill-103" fill="#FEFEFE"></path>
                            <path d="M280.327168,146.014634 L300.380928,136.24577 L300.380928,67.3409421 C293.720448,55.3079544 286.826368,44.8497045 280.327168,36.0127897 L280.327168,146.014634 Z" id="Fill-105" fill="#FEFEFE"></path>
                            <path d="M305.927168,77.8620667 L305.927168,133.544077 L324.487168,124.5029 C319.283968,107.205041 312.840448,91.6453303 305.927168,77.8620667" id="Fill-107" fill="#FEFEFE"></path>
                            <path d="M146.780608,27.3892017 C141.099968,26.548533 134.275008,25.2540182 126.727488,23.2611803 L126.727488,264.092642 L146.780608,264.092642 L146.780608,27.3892017 Z" id="Fill-109" fill="#FEFEFE"></path>
                            <path d="M229.127168,264.092833 L249.180928,264.092833 L249.180928,0.980780094 C248.921728,0.755452809 248.779648,0.636086797 248.779648,0.636086797 C242.246528,4.98879715 235.636608,8.67190886 229.127168,11.7894682 L229.127168,264.092833 Z" id="Fill-111" fill="#FEFEFE"></path>
                            <path d="M75.527168,264.092833 L95.580288,264.092833 L95.580288,11.8896846 C89.002368,8.75106065 82.319488,5.03667122 75.714688,0.636086797 C75.714688,0.636086797 75.646848,0.692897359 75.527168,0.796305348 L75.527168,264.092833 Z" id="Fill-113" fill="#FEFEFE"></path>
                            <path d="M69.980608,5.94812966 C65.295808,10.5351038 58.125248,18.067929 49.927488,28.4514954 L49.927488,148.820948 L55.687488,151.627007 L61.447488,132.583979 C61.447488,132.583979 60.807488,237.298611 63.367488,264.09277 L69.980608,264.09277 L69.980608,5.94812966 Z" id="Fill-115" fill="#FEFEFE"></path>
                            <path d="M172.380928,28.093908 C167.653248,28.640949 164.142208,28.8388285 162.247168,28.9084055 C160.380928,28.8394668 156.947328,28.6473322 152.327168,28.1188025 L152.327168,264.092642 L155.527168,264.092642 L168.967168,264.092642 L172.380928,264.092642 L172.380928,28.093908 Z" id="Fill-117" fill="#FEFEFE"></path>
                            <path d="M274.780928,148.716902 L274.780928,28.7246967 C266.615808,18.3551734 259.456128,10.8031986 254.727168,6.15813724 L254.727168,264.09277 L261.127168,264.09277 C263.687168,237.297972 263.047168,132.583979 263.047168,132.583979 L268.807168,151.627007 L274.780928,148.716902 Z" id="Fill-119" fill="#FEFEFE"></path>
                            <path d="M24.327168,136.350072 L44.380288,146.118935 L44.380288,35.7245239 C37.888128,44.5288844 30.994048,54.95458 24.327168,66.9569282 L24.327168,136.350072 Z" id="Fill-121" fill="#FEFEFE"></path>
                            <path d="M18.780608,77.4338172 C11.786688,91.3224037 5.263808,107.027013 0.007488,124.502963 L18.780608,133.647549 L18.780608,77.4338172 Z" id="Fill-123" fill="#FEFEFE"></path>
                            <path d="M101.127168,264.092833 L121.180288,264.092833 L121.180288,21.7032304 C114.824448,19.8106089 108.066048,17.423927 101.127168,14.4142439 L101.127168,264.092833 Z" id="Fill-125" fill="#FEFEFE"></path>
                        </g>
                        <g id="Group-152" stroke-width="1" fill="none" transform="translate(14.080000, 220.239867)">
                            <path d="M4.16128,126.838261 L45.21856,146.83877 L56.49536,146.83877 L60.80704,132.583787 C60.80704,132.583787 60.77376,138.065687 60.75264,146.83877 L262.46144,146.83877 C262.44096,138.065687 262.40704,132.583787 262.40704,132.583787 L266.71936,146.83877 L277.99616,146.83877 L319.0528,126.838261 L4.16128,126.838261 Z" id="Fill-130" fill="#FEFEFE"></path>
                            <path d="M266.255936,19.1745859 C255.637056,6.91690932 248.139456,0.636469789 248.139456,0.636469789 C235.453376,9.08911541 222.476736,15.0152868 210.513856,19.1745859 L266.255936,19.1745859 Z" id="Fill-136" fill="#FEFEFE"></path>
                            <path d="M60.748096,172.371607 L262.465856,172.371607 C262.481216,165.017511 262.481216,158.205351 262.472256,152.371097 L60.742336,152.371097 C60.734016,158.205351 60.732736,165.017511 60.748096,172.371607" id="Fill-138" fill="#FEFEFE"></path>
                            <path d="M60.762816,177.903934 C60.783296,184.347784 60.817216,191.102496 60.870336,197.904444 L262.344256,197.904444 C262.397376,191.102496 262.430656,184.347784 262.451776,177.903934 L60.762816,177.903934 Z" id="Fill-140" fill="#FEFEFE"></path>
                            <path d="M112.700608,19.1745859 C100.738368,15.0152868 87.761088,9.08911541 75.075008,0.636469789 C75.075008,0.636469789 67.577408,6.91690932 56.958528,19.1745859 L112.700608,19.1745859 Z" id="Fill-142" fill="#FEFEFE"></path>
                            <path d="M191.269056,24.7069134 C176.688576,28.0568216 165.588416,28.7615278 161.606976,28.90898 C157.625536,28.7615278 146.526016,28.0568216 131.945536,24.7069134 L52.298816,24.7069134 C47.644096,30.3911612 42.573376,37.0654447 37.381056,44.7074228 L285.833536,44.7074228 C280.641216,37.0654447 275.570496,30.3911612 270.915776,24.7069134 L191.269056,24.7069134 Z" id="Fill-144" fill="#FEFEFE"></path>
                            <path d="M18.98592,75.772587 C15.76864,82.0613247 12.64224,88.7260334 9.68544,95.7730964 L313.52864,95.7730964 C310.57184,88.7260334 307.44608,82.0613247 304.22816,75.772587 L18.98592,75.772587 Z" id="Fill-146" fill="#FEFEFE"></path>
                            <path d="M7.435648,101.305424 C4.912128,107.683526 2.532608,114.349512 0.352768,121.305933 L322.862208,121.305933 C320.681728,114.349512 318.302208,107.683526 315.778688,101.305424 L7.435648,101.305424 Z" id="Fill-148" fill="#FEFEFE"></path>
                            <path d="M33.714688,50.2397502 C29.759488,56.3580562 25.776128,63.0285098 21.890048,70.2402596 L301.324288,70.2402596 C297.438208,63.0285098 293.454848,56.3580562 289.499648,50.2397502 L33.714688,50.2397502 Z" id="Fill-150" fill="#FEFEFE"></path>
                        </g>
                        <g id="Group-181" stroke-width="1" fill="none" transform="translate(13.440000, 220.239867)">
                            <path d="M61.380032,167.478175 C61.387712,173.74521 61.406912,180.51205 61.442752,187.478684 L263.051712,187.478684 C263.087552,180.51205 263.106752,173.74521 263.113792,167.478175 L61.380032,167.478175 Z" id="Fill-153" fill="#4EC2C3"></path>
                            <polygon id="Fill-155" fill="#4EC2C3" points="265.878464 141.944763 268.807104 151.626815 288.682304 141.944763"></polygon>
                            <polygon id="Fill-157" fill="#4EC2C3" points="55.687168 151.626751 58.615808 141.9447 35.811968 141.9447"></polygon>
                            <path d="M263.087808,141.944763 L61.406528,141.944763 C61.389888,147.053884 61.374528,153.964346 61.376448,161.945911 L263.118528,161.945911 C263.119808,153.964346 263.104448,147.053884 263.087808,141.944763" id="Fill-159" fill="#4EC2C3"></path>
                            <path d="M0.007168,124.502836 L24.456448,136.413266 L60.288768,136.413266 L61.447168,132.583979 C61.447168,132.583979 61.438848,133.953177 61.427968,136.413266 L263.066368,136.413266 C263.055488,133.953177 263.047168,132.583979 263.047168,132.583979 L264.205568,136.413266 L300.037888,136.413266 L324.487168,124.502836 C323.662208,121.761247 322.803968,119.066257 321.920128,116.412118 L2.574208,116.412118 C1.690368,119.066257 0.832128,121.761247 0.007168,124.502836" id="Fill-161" fill="#4EC2C3"></path>
                            <path d="M61.475328,193.011012 C61.518848,199.655932 61.579648,206.406176 61.662848,213.011521 L262.831488,213.011521 C262.914688,206.406176 262.975488,199.655932 263.019008,193.011012 L61.475328,193.011012 Z" id="Fill-165" fill="#4EC2C3"></path>
                            <path d="M41.422208,39.8134163 C37.160448,45.8129946 32.771328,52.4802566 28.423168,59.814564 L296.071808,59.814564 C291.723008,52.4802566 287.333888,45.8129946 283.072128,39.8134163 L41.422208,39.8134163 Z" id="Fill-167" fill="#4EC2C3"></path>
                            <path d="M257.313408,8.74889036 C252.044288,3.37039829 248.779648,0.636469789 248.779648,0.636469789 C244.254848,3.65125949 239.692928,6.34178217 235.153408,8.74889036 L257.313408,8.74889036 Z" id="Fill-169" fill="#4EC2C3"></path>
                            <path d="M89.341568,8.74889036 C84.801408,6.34178217 80.239488,3.65125949 75.714688,0.636469789 C75.714688,0.636469789 72.450048,3.37039829 67.180928,8.74889036 L89.341568,8.74889036 Z" id="Fill-171" fill="#4EC2C3"></path>
                            <path d="M25.224064,65.3462531 C21.711104,71.5775419 18.255744,78.2499105 14.945024,85.3474008 L309.549184,85.3474008 C306.239104,78.2499105 302.783744,71.5775419 299.270144,65.3462531 L25.224064,65.3462531 Z" id="Fill-175" fill="#4EC2C3"></path>
                            <path d="M223.676544,14.2805795 C194.712704,26.9110355 168.810624,28.6657797 162.247424,28.90898 C155.683584,28.6657797 129.781504,26.9110355 100.817664,14.2805795 L61.949824,14.2805795 C57.188864,19.4886398 51.513984,26.1667533 45.449344,34.2817272 L279.045504,34.2817272 C272.980864,26.1667533 267.305344,19.4886398 262.544384,14.2805795 L223.676544,14.2805795 Z" id="Fill-177" fill="#4EC2C3"></path>
                            <path d="M12.436544,90.8790899 C9.635904,97.2252764 6.964544,103.893177 4.480064,110.880238 L320.014144,110.880238 C317.530304,103.893177 314.858304,97.2252764 312.057664,90.8790899 L12.436544,90.8790899 Z" id="Fill-179" fill="#4EC2C3"></path>
                        </g>
                        <g id="Group-208" stroke-width="1" fill="none" transform="translate(13.440000, 220.239867)">
                            <path d="M131.847168,264.092833 L151.900288,264.092833 L151.900288,28.069205 C146.558208,27.4436505 139.691008,26.3712713 131.847168,24.5354604 L131.847168,264.092833 Z" id="Fill-182" fill="#00B0E0"></path>
                            <path d="M228.700928,11.9909861 C221.829248,15.2579126 215.074048,17.8980079 208.647168,20.0274465 L208.647168,264.092642 L228.700928,264.092642 L228.700928,11.9909861 Z" id="Fill-184" fill="#00B0E0"></path>
                            <path d="M183.047168,264.092833 L203.100928,264.092833 L203.100928,21.7657859 C195.756288,23.9424602 188.956288,25.4603874 183.047168,26.5174468 L183.047168,264.092833 Z" id="Fill-186" fill="#00B0E0"></path>
                            <path d="M234.247168,264.092833 L254.300928,264.092833 L254.300928,5.74073919 C250.830848,2.35508503 248.779648,0.636086797 248.779648,0.636086797 C243.954048,3.85194759 239.086208,6.70013554 234.247168,9.22660974 L234.247168,264.092833 Z" id="Fill-188" fill="#00B0E0"></path>
                            <path d="M285.447168,143.520586 L305.500928,133.751723 L305.500928,77.0069081 C299.004928,64.1587847 292.109568,52.8809306 285.447168,43.2078154 L285.447168,143.520586 Z" id="Fill-190" fill="#00B0E0"></path>
                            <path d="M311.047168,88.6115825 L311.047168,131.050349 L324.487168,124.503091 C320.594048,111.561134 316.005248,99.5932556 311.047168,88.6115825" id="Fill-192" fill="#00B0E0"></path>
                            <path d="M279.900928,146.222854 L279.900928,35.4371519 C272.314368,25.1774197 265.294848,17.1364911 259.847168,11.3813897 L259.847168,264.092642 L261.127168,264.092642 C263.687168,237.298483 263.047168,132.583851 263.047168,132.583851 L268.807168,151.626879 L279.900928,146.222854 Z" id="Fill-194" fill="#00B0E0"></path>
                            <path d="M75.100608,1.16659531 C72.923968,3.07517486 65.139648,10.1503239 55.047488,22.1660769 L55.047488,151.314995 L55.687488,151.626496 L61.447488,132.583468 C61.447488,132.583468 60.807488,237.2981 63.367488,264.092897 L75.100608,264.092897 L75.100608,1.16659531 Z" id="Fill-196" fill="#00B0E0"></path>
                            <path d="M177.500928,27.4209901 C170.169728,28.4971992 164.773888,28.815083 162.247168,28.9089161 C161.157248,28.8687019 159.529728,28.7857202 157.447168,28.6191185 L157.447168,264.092514 L168.967168,264.092514 L177.500928,264.092514 L177.500928,27.4209901 Z" id="Fill-198" fill="#00B0E0"></path>
                            <path d="M23.900608,67.7237432 C14.998208,83.8643259 6.529088,102.821181 0.007488,124.503027 L23.900608,136.142809 L23.900608,67.7237432 Z" id="Fill-200" fill="#00B0E0"></path>
                            <path d="M29.447168,138.84412 L49.500288,148.612983 L49.500288,28.9967491 C43.184768,37.0376777 36.282368,46.7554754 29.447168,58.106098 L29.447168,138.84412 Z" id="Fill-202" fill="#00B0E0"></path>
                            <path d="M126.300608,23.1469209 C120.024128,21.4732434 113.259968,19.3169953 106.247488,16.5383844 L106.247488,264.092642 L126.300608,264.092642 L126.300608,23.1469209 Z" id="Fill-204" fill="#00B0E0"></path>
                            <path d="M100.700608,14.2300883 C94.109248,11.3499843 87.361728,7.90496627 80.647488,3.78715802 L80.647488,264.092514 L100.700608,264.092514 L100.700608,14.2300883 Z" id="Fill-206" fill="#00B0E0"></path>
                        </g>
                        <g id="Group-235" stroke-width="1" fill="none" transform="translate(13.440000, 242.581099)">
                            <path d="M288.750336,25.7709305 L35.744256,25.7709305 C35.008896,26.8867155 34.272896,28.0203734 33.535616,29.1744577 L290.958976,29.1744577 C290.221696,28.0203734 289.485056,26.8867155 288.750336,25.7709305" id="Fill-209" fill="#FEFEFE"></path>
                            <polygon id="Fill-211" fill="#FEFEFE" points="52.847808 127.902278 55.687488 129.285519 56.105408 127.902278"></polygon>
                            <path d="M272.592192,3.64168468 C271.642432,2.46717419 270.709312,1.33223959 269.793472,0.238157535 L200.276032,0.238157535 C195.145152,1.67054968 190.312512,2.78122808 185.906752,3.64168468 L272.592192,3.64168468 Z" id="Fill-215" fill="#FEFEFE"></path>
                            <path d="M138.58784,3.64168468 C134.18144,2.78122808 129.34944,1.67054968 124.21856,0.238157535 L54.70112,0.238157535 C53.78592,1.33223959 52.85216,2.46717419 51.9024,3.64168468 L138.58784,3.64168468 Z" id="Fill-221" fill="#FEFEFE"></path>
                            <path d="M8.922176,76.8366041 C8.466496,77.9619639 8.015296,79.0962602 7.569216,80.2401313 L316.924736,80.2401313 C316.478656,79.0962602 316.028096,77.9619639 315.572416,76.8366041 L8.922176,76.8366041 Z" id="Fill-223" fill="#FEFEFE"></path>
                            <polygon id="Fill-225" fill="#FEFEFE" points="0.434048 102.369441 7.420928 105.772968 317.073408 105.772968 324.060288 102.369441"></polygon>
                            <path d="M18.9728,54.7073583 L305.52128,54.7073583 C304.94144,53.5596573 304.35776,52.4266376 303.77216,51.3038311 L20.72192,51.3038311 C20.13632,52.4266376 19.55264,53.5596573 18.9728,54.7073583" id="Fill-227" fill="#FEFEFE"></path>
                            <path d="M61.396544,153.435115 C61.399744,154.559836 61.402944,155.694132 61.407424,156.838642 L263.087424,156.838642 C263.091264,155.694132 263.094464,154.559836 263.097664,153.435115 L61.396544,153.435115 Z" id="Fill-229" fill="#FEFEFE"></path>
                            <path d="M61.3856,127.902278 C61.38368,128.998275 61.38176,130.133848 61.38048,131.305805 L263.11424,131.305805 C263.11232,130.133848 263.11104,128.998275 263.10912,127.902278 L61.3856,127.902278 Z" id="Fill-231" fill="#FEFEFE"></path>
                            <polygon id="Fill-233" fill="#FEFEFE" points="268.389056 127.902278 268.806976 129.285519 271.646656 127.902278"></polygon>
                        </g>
                        <polygon id="Fill-236" fill="#6BC1EC" points="10.567168 334.312284 73.394048 363.91697 68.487168 382.185714 6.087168 357.078638"></polygon>
                        <polygon id="Fill-237" fill="#6BC1EC" points="341.554048 334.312284 278.727168 363.91697 283.634048 382.185714 346.034048 357.078638"></polygon>
                        <polygon id="Fill-238" fill="#2469B0" points="172.80704 484.970702 179.20704 484.970702 179.20704 246.155058 172.80704 246.155058"></polygon>
                        <g id="Group-255" stroke-width="1" fill="none" transform="translate(80.640000, 296.838377)">
                            <path d="M0.81344,0.450080081 C0.56768,1.5460771 0.43392,2.6842033 0.43392,3.85360723 C0.43392,12.4320021 7.40608,19.3858702 16.00704,19.3858702 L49.07392,19.3858702 C57.67488,19.3858702 64.64704,12.4320021 64.64704,3.85360723 C64.64704,2.6842033 64.51328,1.5460771 64.26752,0.450080081 L0.81344,0.450080081 Z" id="Fill-239" fill="#2469B0"></path>
                            <path d="M38.894976,9.91797513 C38.894976,12.889359 36.480256,15.2983822 33.500416,15.2983822 C30.521216,15.2983822 28.106496,12.889359 28.106496,9.91797513 C28.106496,6.94659124 30.521216,4.53756809 33.500416,4.53756809 C36.480256,4.53756809 38.894976,6.94659124 38.894976,9.91797513" id="Fill-241" fill="#FEFEFE"></path>
                            <path d="M33.127168,9.98621163 C33.127168,10.5811267 32.643968,11.063059 32.047488,11.063059 C31.450368,11.063059 30.967168,10.5811267 30.967168,9.98621163 C30.967168,9.39129654 31.450368,8.90936424 32.047488,8.90936424 C32.643968,8.90936424 33.127168,9.39129654 33.127168,9.98621163" id="Fill-243" fill="#2469B0"></path>
                            <path d="M36.327168,9.98621163 C36.327168,10.5811267 35.843968,11.063059 35.247488,11.063059 C34.650368,11.063059 34.167168,10.5811267 34.167168,9.98621163 C34.167168,9.39129654 34.650368,8.90936424 35.247488,8.90936424 C35.843968,8.90936424 36.327168,9.39129654 36.327168,9.98621163" id="Fill-245" fill="#2469B0"></path>
                            <path d="M119.85344,0.450080081 C119.60704,1.5460771 119.47328,2.6842033 119.47328,3.85360723 C119.47328,12.4320021 126.44608,19.3858702 135.04704,19.3858702 L168.11392,19.3858702 C176.71488,19.3858702 183.68704,12.4320021 183.68704,3.85360723 C183.68704,2.6842033 183.55328,1.5460771 183.30688,0.450080081 L119.85344,0.450080081 Z" id="Fill-247" fill="#2469B0"></path>
                            <path d="M157.934656,9.91797513 C157.934656,12.889359 155.519936,15.2983822 152.540736,15.2983822 C149.560896,15.2983822 147.146176,12.889359 147.146176,9.91797513 C147.146176,6.94659124 149.560896,4.53756809 152.540736,4.53756809 C155.519936,4.53756809 157.934656,6.94659124 157.934656,9.91797513" id="Fill-249" fill="#FEFEFE"></path>
                            <path d="M152.167168,9.98621163 C152.167168,10.5811267 151.683328,11.063059 151.087488,11.063059 C150.491008,11.063059 150.007168,10.5811267 150.007168,9.98621163 C150.007168,9.39129654 150.491008,8.90936424 151.087488,8.90936424 C151.683328,8.90936424 152.167168,9.39129654 152.167168,9.98621163" id="Fill-251" fill="#2469B0"></path>
                            <path d="M155.367168,9.98621163 C155.367168,10.5811267 154.883328,11.063059 154.287488,11.063059 C153.691008,11.063059 153.207168,10.5811267 153.207168,9.98621163 C153.207168,9.39129654 153.691008,8.90936424 154.287488,8.90936424 C154.883328,8.90936424 155.367168,9.39129654 155.367168,9.98621163" id="Fill-253" fill="#2469B0"></path>
                        </g>
                        <g id="Group-276" stroke-width="1" fill="none" transform="translate(81.920000, 44.063293)">
                            <path d="M97.939712,1.01888785 L97.942912,0.310351631 L93.814912,0.533763953 L89.687552,0.310351631 L89.690112,1.01888785 C76.218112,4.1051695 -14.201728,29.5690676 2.168192,154.076116 C2.168192,154.076116 35.634432,186.570481 83.863552,188.383951 L90.511232,189.890388 L90.517632,191.385974 L93.814912,190.639139 L97.112192,191.385974 L97.118592,189.890388 L103.766912,188.383951 C151.996032,186.570481 185.462272,154.076116 185.462272,154.076116 C201.830912,29.5709826 111.414912,4.10644614 97.939712,1.01888785" id="Fill-256" fill="#F27835"></path>
                            <path d="M100.584704,22.9325089 L95.201664,22.9325089 L92.427264,22.9325089 L87.044864,22.9325089 C87.044864,22.9325089 4.135424,30.5872533 19.012224,168.59096 C19.012224,168.59096 38.814464,188.949567 83.997824,192.952478 L83.966464,193.593352 C87.361664,193.663567 90.639744,193.639311 93.814784,193.538456 C96.989824,193.639311 100.268544,193.663567 103.663744,193.593352 L103.631104,192.952478 C148.814464,188.949567 168.618624,168.59096 168.618624,168.59096 C183.493504,30.5872533 100.584704,22.9325089 100.584704,22.9325089" id="Fill-258" fill="#FFEABF"></path>
                            <polygon id="Fill-260" fill="#CE3828" points="108.043456 31.589098 97.093696 28.5123912 97.093696 26.6695587 93.814976 27.5912941 90.536256 26.6695587 90.536256 28.5123912 79.586496 31.589098 66.216256 139.990033 90.536256 139.990033 97.093696 139.990033 121.413696 139.990033"></polygon>
                            <path d="M142.46592,116.809601 C142.46592,120.606972 139.3792,123.685594 135.5712,123.685594 C131.7632,123.685594 128.67712,120.606972 128.67712,116.809601 C128.67712,113.011591 131.7632,109.933608 135.5712,109.933608 C139.3792,109.933608 142.46592,113.011591 142.46592,116.809601" id="Fill-262" fill="#423023"></path>
                            <path d="M138.024704,115.706263 C138.024704,117.057588 136.925824,118.152947 135.570944,118.152947 C134.216704,118.152947 133.118464,117.057588 133.118464,115.706263 C133.118464,114.354937 134.216704,113.259579 135.570944,113.259579 C136.925824,113.259579 138.024704,114.354937 138.024704,115.706263" id="Fill-264" fill="#ECD1C2"></path>
                            <path d="M58.311232,115.706263 C58.311232,119.503634 55.224512,122.582256 51.416512,122.582256 C47.608512,122.582256 44.522432,119.503634 44.522432,115.706263 C44.522432,111.908253 47.608512,108.83027 51.416512,108.83027 C55.224512,108.83027 58.311232,111.908253 58.311232,115.706263" id="Fill-266" fill="#423023"></path>
                            <path d="M53.870016,114.602925 C53.870016,115.954251 52.771136,117.049609 51.416256,117.049609 C50.062016,117.049609 48.963776,115.954251 48.963776,114.602925 C48.963776,113.2516 50.062016,112.156241 51.416256,112.156241 C52.771136,112.156241 53.870016,113.2516 53.870016,114.602925" id="Fill-268" fill="#ECD1C2"></path>
                            <path d="M20.849344,49.041941 C20.849344,49.041941 14.039744,60.6983193 12.885184,63.2120271 C12.885184,63.2120271 49.921984,66.5172528 54.724544,67.4747342 C54.724544,67.4747342 34.971584,51.3545777 20.849344,49.041941" id="Fill-270" fill="#4E2F1B"></path>
                            <path d="M65.38656,104.338023 L32.85344,104.338023 C32.85344,104.338023 31.38976,99.1331538 34.792,99.1146425 C34.792,99.1146425 29.59968,95.0479 34.98912,94.7229946 C34.98912,94.7229946 33.82432,89.5168492 41.10752,90.9626461 C48.39136,92.4090813 62.95904,92.9510157 65.38656,104.338023" id="Fill-272" fill="#F2AA5F"></path>
                            <path d="M121.500288,104.338023 L154.033408,104.338023 C154.033408,104.338023 155.497088,99.1331538 152.094848,99.1146425 C152.094848,99.1146425 157.287168,95.0479 151.897088,94.7229946 C151.897088,94.7229946 153.061888,89.5168492 145.779328,90.9626461 C138.495488,92.4090813 123.928448,92.9510157 121.500288,104.338023" id="Fill-274" fill="#F2AA5F"></path>
                        </g>
                        <g id="Group-309" stroke-width="1" fill="none" transform="translate(69.760000, 173.642440)">
                            <path d="M75.592192,11.0762084 C75.592192,11.0762084 27.495552,0.873925172 1.627392,19.840993 C1.627392,19.840993 3.965312,28.2712974 7.906432,29.9577413 L0.638592,40.0732129 C0.638592,40.0732129 7.439872,46.3964199 9.954432,47.2390035 C9.954432,47.2390035 2.918912,53.5615722 1.627392,52.7189886 C1.627392,52.7189886 9.721472,59.9511646 11.405952,59.7066877 C13.091072,59.4628491 22.735232,189.862238 88.999552,211.913673 L86.510592,194.766458 L106.886912,222.373838 L106.886912,16.4693819 L75.592192,11.0762084 Z" id="Fill-277" fill="#F2AA5F"></path>
                            <path d="M137.53344,11.0762084 C137.53344,11.0762084 185.62944,0.873925172 211.49824,19.840993 C211.49824,19.840993 209.15968,28.2712974 205.21984,29.9577413 L212.48704,40.0732129 C212.48704,40.0732129 205.68576,46.3964199 203.1712,47.2390035 C203.1712,47.2390035 210.20736,53.5615722 211.49824,52.7189886 C211.49824,52.7189886 203.4048,59.9511646 201.71968,59.7066877 C200.03456,59.4628491 190.39104,189.862238 124.12608,211.913673 L126.6144,194.766458 L106.23872,222.373838 L106.23872,16.4693819 L137.53344,11.0762084 Z" id="Fill-279" fill="#F2AA5F"></path>
                            <path d="M137.284032,37.0874668 C137.284032,50.7398746 127.101632,61.8070827 114.540352,61.8070827 L98.380992,61.8070827 C85.819712,61.8070827 75.637312,50.7398746 75.637312,37.0874668 C75.637312,23.4344206 85.819712,12.3672125 98.380992,12.3672125 L114.540352,12.3672125 C127.101632,12.3672125 137.284032,23.4344206 137.284032,37.0874668" id="Fill-281" fill="#FFEABF"></path>
                            <path d="M101.127168,12.4198101 C101.127168,12.4198101 58.051328,-3.05947217 38.789248,0.77045335 C38.789248,0.77045335 37.527168,6.0078765 46.126848,9.77269329 L34.354048,15.770995 C34.354048,15.770995 58.247168,44.1762759 103.047168,19.6009205 C147.847168,-4.97443493 101.127168,12.4198101 101.127168,12.4198101" id="Fill-283" fill="#F2925F"></path>
                            <path d="M113.299712,12.4198101 C113.299712,12.4198101 156.375552,-3.05947217 175.636992,0.77045335 C175.636992,0.77045335 176.899712,6.0078765 168.300032,9.77269329 L180.072832,15.770995 C180.072832,15.770995 156.179712,44.1762759 111.379712,19.6009205 C66.579712,-4.97443493 113.299712,12.4198101 113.299712,12.4198101" id="Fill-285" fill="#F2925F"></path>
                            <path d="M74.460288,16.3563353 C74.460288,16.9142277 74.006528,17.3667973 73.447168,17.3667973 C72.887168,17.3667973 72.433408,16.9142277 72.433408,16.3563353 C72.433408,15.7978045 72.887168,15.3458732 73.447168,15.3458732 C74.006528,15.3458732 74.460288,15.7978045 74.460288,16.3563353" id="Fill-287" fill="#4E2F1B"></path>
                            <path d="M72.390912,21.8350437 C72.390912,22.3642118 71.961472,22.7925251 71.430912,22.7925251 C70.900352,22.7925251 70.470912,22.3642118 70.470912,21.8350437 C70.470912,21.3058757 70.900352,20.8775623 71.430912,20.8775623 C71.961472,20.8775623 72.390912,21.3058757 72.390912,21.8350437" id="Fill-289" fill="#4E2F1B"></path>
                            <path d="M80.29408,21.8350437 C80.29408,22.3642118 79.86464,22.7925251 79.33408,22.7925251 C78.80416,22.7925251 78.37408,22.3642118 78.37408,21.8350437 C78.37408,21.3058757 78.80416,20.8775623 79.33408,20.8775623 C79.86464,20.8775623 80.29408,21.3058757 80.29408,21.8350437" id="Fill-291" fill="#4E2F1B"></path>
                            <path d="M79.33408,16.2369692 C79.33408,16.7291147 78.93408,17.1280652 78.44064,17.1280652 C77.94656,17.1280652 77.54656,16.7291147 77.54656,16.2369692 C77.54656,15.7448238 77.94656,15.3458732 78.44064,15.3458732 C78.93408,15.3458732 79.33408,15.7448238 79.33408,16.2369692" id="Fill-293" fill="#4E2F1B"></path>
                            <path d="M69.340608,14.4943531 C69.340608,14.9641573 68.958528,15.3452349 68.487488,15.3452349 C68.015808,15.3452349 67.633728,14.9641573 67.633728,14.4943531 C67.633728,14.0245489 68.015808,13.6434713 68.487488,13.6434713 C68.958528,13.6434713 69.340608,14.0245489 69.340608,14.4943531" id="Fill-295" fill="#4E2F1B"></path>
                            <path d="M136.221568,18.5904585 C136.221568,19.2664403 135.672448,19.8141197 134.994688,19.8141197 C134.316928,19.8141197 133.767808,19.2664403 133.767808,18.5904585 C133.767808,17.9144766 134.316928,17.3667973 134.994688,17.3667973 C135.672448,17.3667973 136.221568,17.9144766 136.221568,18.5904585" id="Fill-297" fill="#4E2F1B"></path>
                            <path d="M140.994688,16.2369692 C140.994688,16.7291147 140.594688,17.1280652 140.101248,17.1280652 C139.607168,17.1280652 139.207168,16.7291147 139.207168,16.2369692 C139.207168,15.7448238 139.607168,15.3458732 140.101248,15.3458732 C140.594688,15.3458732 140.994688,15.7448238 140.994688,16.2369692" id="Fill-299" fill="#4E2F1B"></path>
                            <path d="M139.402176,11.4355193 C139.402176,11.9500059 138.983616,12.3668295 138.467776,12.3668295 C137.951296,12.3668295 137.533376,11.9500059 137.533376,11.4355193 C137.533376,10.9203943 137.951296,10.5035707 138.467776,10.5035707 C138.983616,10.5035707 139.402176,10.9203943 139.402176,11.4355193" id="Fill-301" fill="#4E2F1B"></path>
                            <path d="M128.647168,20.5584019 C128.647168,20.9694805 128.313088,21.3033224 127.900928,21.3033224 C127.488128,21.3033224 127.154048,20.9694805 127.154048,20.5584019 C127.154048,20.1473232 127.488128,19.8134814 127.900928,19.8134814 C128.313088,19.8134814 128.647168,20.1473232 128.647168,20.5584019" id="Fill-303" fill="#4E2F1B"></path>
                            <path d="M142.757184,23.7500065 C142.757184,24.2791745 142.327104,24.7074879 141.797184,24.7074879 C141.267264,24.7074879 140.837184,24.2791745 140.837184,23.7500065 C140.837184,23.2208384 141.267264,22.7925251 141.797184,22.7925251 C142.327104,22.7925251 142.757184,23.2208384 142.757184,23.7500065" id="Fill-305" fill="#4E2F1B"></path>
                            <path d="M146.780928,19.7119245 C146.780928,20.1255565 146.444928,20.4613133 146.029568,20.4613133 C145.614848,20.4613133 145.278208,20.1255565 145.278208,19.7119245 C145.278208,19.2982925 145.614848,18.9625357 146.029568,18.9625357 C146.444928,18.9625357 146.780928,19.2982925 146.780928,19.7119245" id="Fill-307" fill="#4E2F1B"></path>
                        </g>
                        <g id="Group-328" stroke-width="1" fill="none" transform="translate(101.760000, 202.366881)">
                            <path d="M75.527168,51.3580246 C74.290048,51.3580246 73.287168,50.3577757 73.287168,49.1239014 L73.287168,45.2939758 C73.287168,44.0601015 74.290048,43.0598526 75.527168,43.0598526 C76.764288,43.0598526 77.767168,44.0601015 77.767168,45.2939758 L77.767168,49.1239014 C77.767168,50.3577757 76.764288,51.3580246 75.527168,51.3580246" id="Fill-310" fill="#F2925F"></path>
                            <path d="M75.527168,66.0568957 C74.290048,66.0568957 73.287168,65.0566469 73.287168,63.8227725 L73.287168,56.4731454 C73.287168,55.2392711 74.290048,54.2390222 75.527168,54.2390222 C76.764288,54.2390222 77.767168,55.2392711 77.767168,56.4731454 L77.767168,63.8227725 C77.767168,65.0566469 76.764288,66.0568957 75.527168,66.0568957 M75.527168,80.7561499 C74.290048,80.7561499 73.287168,79.755901 73.287168,78.5220267 L73.287168,71.1723996 C73.287168,69.9385253 74.290048,68.9382764 75.527168,68.9382764 C76.764288,68.9382764 77.767168,69.9385253 77.767168,71.1723996 L77.767168,78.5220267 C77.767168,79.755901 76.764288,80.7561499 75.527168,80.7561499 M75.527168,95.4547657 C74.290048,95.4547657 73.287168,94.4545168 73.287168,93.2206425 L73.287168,85.8716537 C73.287168,84.6371411 74.290048,83.6375305 75.527168,83.6375305 C76.764288,83.6375305 77.767168,84.6371411 77.767168,85.8716537 L77.767168,93.2206425 C77.767168,94.4545168 76.764288,95.4547657 75.527168,95.4547657 M75.527168,110.15402 C74.290048,110.15402 73.287168,109.153771 73.287168,107.919897 L73.287168,100.57027 C73.287168,99.3363952 74.290048,98.3361463 75.527168,98.3361463 C76.764288,98.3361463 77.767168,99.3363952 77.767168,100.57027 L77.767168,107.919897 C77.767168,109.153771 76.764288,110.15402 75.527168,110.15402 M75.527168,124.852636 C74.290048,124.852636 73.287168,123.852387 73.287168,122.618512 L73.287168,115.269524 C73.287168,114.035649 74.290048,113.0354 75.527168,113.0354 C76.764288,113.0354 77.767168,114.035649 77.767168,115.269524 L77.767168,122.618512 C77.767168,123.852387 76.764288,124.852636 75.527168,124.852636 M75.527168,139.55189 C74.290048,139.55189 73.287168,138.551641 73.287168,137.317767 L73.287168,129.968778 C73.287168,128.734265 74.290048,127.734655 75.527168,127.734655 C76.764288,127.734655 77.767168,128.734265 77.767168,129.968778 L77.767168,137.317767 C77.767168,138.551641 76.764288,139.55189 75.527168,139.55189 M75.527168,154.251144 C74.290048,154.251144 73.287168,153.250895 73.287168,152.017021 L73.287168,144.667394 C73.287168,143.433519 74.290048,142.43327 75.527168,142.43327 C76.764288,142.43327 77.767168,143.433519 77.767168,144.667394 L77.767168,152.017021 C77.767168,153.250895 76.764288,154.251144 75.527168,154.251144" id="Fill-312" fill="#F2925F"></path>
                            <path d="M75.527168,165.430441 C74.290048,165.430441 73.287168,164.430192 73.287168,163.196318 L73.287168,159.366393 C73.287168,158.132518 74.290048,157.132269 75.527168,157.132269 C76.764288,157.132269 77.767168,158.132518 77.767168,159.366393 L77.767168,163.196318 C77.767168,164.430192 76.764288,165.430441 75.527168,165.430441" id="Fill-314" fill="#F2925F"></path>
                            <path d="M53.515968,49.5344055 L53.515968,49.5344055 C52.278848,49.5344055 51.275968,48.5341567 51.275968,47.3002823 C51.275968,42.5320251 51.313728,39.637878 51.314368,39.6091536 C51.330368,38.3759175 52.326848,37.3699238 53.583808,37.4050314 C54.820928,37.4209894 55.810368,38.4346431 55.793728,39.6685174 C55.793728,39.6966035 55.755968,42.5652177 55.755968,47.3002823 C55.755968,48.5341567 54.753088,49.5344055 53.515968,49.5344055 M53.633088,64.8860237 C52.411968,64.8860237 51.412928,63.908116 51.394368,62.6863698 C51.352128,59.9415898 51.323968,57.3634116 51.306048,54.9958793 C51.296448,53.762005 52.291648,52.7540963 53.528768,52.7445215 L53.546048,52.7445215 C54.775488,52.7445215 55.776448,53.7339189 55.786048,54.96141 C55.803968,57.3180908 55.831488,59.8854176 55.873728,62.6180694 C55.892288,63.8519438 54.904768,64.8675124 53.667648,64.8860237 L53.633088,64.8860237 M53.984448,80.2267903 C52.779968,80.2267903 51.784768,79.2718623 51.746368,78.0628824 C51.664448,75.430447 51.595968,72.8592903 51.539648,70.3736686 C51.511488,69.1404326 52.490688,68.1178425 53.727808,68.0897564 C54.963648,68.0808199 55.990208,69.0389396 56.018368,70.2721756 C56.074688,72.7450308 56.142528,75.3040594 56.224448,77.9230901 C56.262848,79.1563262 55.291968,80.1872144 54.055488,80.226152 C54.031808,80.2267903 54.008128,80.2267903 53.984448,80.2267903 M54.609088,95.5586205 C53.423808,95.5586205 52.435008,94.6317785 52.373568,93.4381184 C52.241728,90.8580253 52.125248,88.2881452 52.022208,85.7501813 C51.972288,84.5175836 52.933568,83.4777588 54.170048,83.4279698 C55.405888,83.3762658 56.449088,84.3369388 56.498368,85.5701748 C56.600768,88.092819 56.716608,90.6461027 56.847808,93.2102379 C56.910528,94.4428356 55.960128,95.4928735 54.724928,95.5554289 C54.685888,95.5573439 54.647488,95.5586205 54.609088,95.5586205 M55.588288,110.871301 C54.431168,110.871301 53.450048,109.982758 53.357888,108.811439 C53.163968,106.347521 52.980928,103.761683 52.812608,101.125417 C52.734528,99.8940962 53.672128,98.8325685 54.906688,98.7540551 C56.138688,98.6857547 57.205568,99.61132 57.284288,100.842641 C57.450048,103.456565 57.632448,106.020062 57.823808,108.462278 C57.921088,109.692322 56.999488,110.767893 55.766208,110.86428 C55.706688,110.868748 55.647168,110.871301 55.588288,110.871301 M57.098688,126.139299 C55.983808,126.139299 55.018048,125.309482 54.878528,124.177739 C54.580928,121.763609 54.296128,119.179048 54.033728,116.496185 C53.913408,115.268056 54.814528,114.17525 56.045888,114.055884 C57.269568,113.937156 58.372288,114.833359 58.492608,116.062127 C58.751808,118.707967 59.031488,121.254867 59.324608,123.632613 C59.476288,124.856912 58.603328,125.972059 57.375168,126.122064 C57.282368,126.133554 57.190208,126.139299 57.098688,126.139299 M59.570368,141.278995 C58.539968,141.278995 57.612608,140.565352 57.384128,139.520421 C56.880448,137.217359 56.399808,134.637904 55.955008,131.854186 C55.760448,130.635632 56.593088,129.490484 57.814848,129.296434 C59.035328,129.099832 60.184768,129.93284 60.379328,131.150757 C60.810688,133.851493 61.275968,136.347327 61.761088,138.568046 C62.024768,139.773834 61.258688,140.964303 60.049728,141.226652 C59.889088,141.262398 59.728448,141.278995 59.570368,141.278995 M64.852288,155.232052 C64.209088,155.232052 63.571008,154.958212 63.128128,154.425852 C61.759808,152.783453 60.557888,150.409537 59.452608,147.166229 C59.054528,145.998101 59.681728,144.729119 60.852928,144.332084 C62.024768,143.93441 63.296448,144.560603 63.694528,145.72873 C64.607808,148.407124 65.576128,150.372515 66.573888,151.570643 C67.364288,152.519188 67.234368,153.927962 66.282688,154.716927 C65.864128,155.063535 65.356608,155.232052 64.852288,155.232052" id="Fill-316" fill="#F2925F"></path>
                            <path d="M29.206592,28.9959193 C27.987392,28.9959193 26.988352,28.0205649 26.967232,26.8000953 C26.884672,21.9558779 26.883392,19.0687523 26.883392,19.0400279 C26.883392,17.8061536 27.886272,16.8059047 29.123392,16.8052664 C30.360512,16.8052664 31.363392,17.8055152 31.363392,19.0393896 C31.363392,19.0674757 31.364672,21.9220469 31.446592,26.7234968 C31.467712,27.9573712 30.482112,28.9742164 29.245632,28.9959193 L29.206592,28.9959193 M29.613632,44.3596655 C28.413632,44.3596655 27.419712,43.4111206 27.376832,42.2046941 C27.278912,39.4452328 27.200192,36.8657779 27.136832,34.5052672 C27.104192,33.2713928 28.080192,32.2449728 29.316672,32.2124184 C30.552512,32.163906 31.582272,33.1526651 31.615552,34.3859011 C31.678272,36.7349221 31.756352,39.3009722 31.853632,42.0463905 C31.897792,43.2796265 30.930752,44.314983 29.694912,44.3583889 C29.667392,44.3596655 29.640512,44.3596655 29.613632,44.3596655 M30.295872,59.7061771 C29.113152,59.7061771 28.124992,58.783165 28.060992,57.5914199 C27.918912,54.9436647 27.794112,52.3737847 27.684032,49.9002911 C27.629632,48.6676934 28.587072,47.6240387 29.822272,47.5691431 C31.076672,47.5136092 32.104512,48.4698139 32.159552,49.7017733 C32.268992,52.1625004 32.393152,54.7189757 32.534592,57.3526878 C32.600512,58.5846472 31.652672,59.6372384 30.417472,59.7029855 C30.376512,59.7055388 30.336192,59.7061771 30.295872,59.7061771 M31.271232,75.031624 C30.108992,75.031624 29.126592,74.1366981 29.039552,72.9621876 C28.846912,70.3629448 28.670912,67.7968947 28.510912,65.2787187 C28.432832,64.0473977 29.370432,62.98587 30.604992,62.9079948 C31.835712,62.8365029 32.903872,63.7652598 32.981952,64.9965809 C33.140672,67.4987989 33.315392,70.0495293 33.507392,72.632814 C33.598272,73.8634968 32.672832,74.9345993 31.438912,75.0252408 C31.382592,75.0297091 31.326912,75.031624 31.271232,75.031624 M32.590912,90.3289849 C31.453632,90.3289849 30.479552,89.46789 30.364992,88.3150824 C30.117312,85.8269074 29.878592,83.2448993 29.654592,80.6418266 C29.548992,79.4124205 30.462272,78.3304666 31.694912,78.2245053 C32.926272,78.1217356 34.012352,79.0300663 34.117952,80.2594724 C34.340032,82.8433955 34.577472,85.4056156 34.822592,87.874641 C34.944832,89.1027704 34.045632,90.1962141 32.814912,90.3181334 C32.740032,90.3257933 32.665152,90.3289849 32.590912,90.3289849 M34.346432,105.588046 C33.239872,105.588046 32.277312,104.770357 32.128832,103.646274 C31.803072,101.185547 31.484992,98.6092839 31.184192,95.9889765 C31.044032,94.762762 31.926592,93.6552752 33.155392,93.5148446 C34.385472,93.3769673 35.495232,94.2546585 35.635392,95.480873 C35.932992,98.0756476 36.247232,100.626378 36.569792,103.060934 C36.732352,104.284595 35.869632,105.407402 34.642752,105.568259 C34.542912,105.581663 34.444352,105.588046 34.346432,105.588046 M36.692032,120.760296 C35.628352,120.760296 34.684992,120.001971 34.489792,118.920656 C34.051392,116.483546 33.623872,113.916858 33.220032,111.292082 C33.033152,110.072251 33.872192,108.93221 35.094592,108.745182 C36.317632,108.556877 37.460672,109.394992 37.648192,110.614185 C38.046912,113.2013 38.467392,115.730328 38.899392,118.131053 C39.118272,119.345777 38.308032,120.506883 37.090752,120.725189 C36.956992,120.748807 36.823232,120.760296 36.692032,120.760296 M39.931072,135.767221 C38.935232,135.767221 38.025792,135.099538 37.764672,134.092905 C37.148992,131.723458 36.549952,129.177834 35.982272,126.526249 C35.724352,125.319184 36.496192,124.132546 37.705792,123.875303 C38.916672,123.616144 40.105792,124.387236 40.363712,125.593662 C40.917952,128.182692 41.502272,130.665122 42.101312,132.972652 C42.411712,134.166951 41.691712,135.386144 40.494272,135.695091 C40.306112,135.743603 40.117312,135.767221 39.931072,135.767221 M44.780352,150.317747 C43.916992,150.317747 43.093952,149.817303 42.726592,148.977273 C41.762752,146.77698 40.827072,144.293274 39.945792,141.595091 C39.562432,140.421857 40.205632,139.161174 41.381952,138.778819 C42.559552,138.397742 43.822912,139.038616 44.205632,140.211212 C45.042112,142.772793 45.925952,145.119899 46.831552,147.188697 C47.326912,148.319164 46.809792,149.636658 45.675712,150.13008 C45.383872,150.257106 45.079872,150.317747 44.780352,150.317747 M50.091072,159.31488 C49.456192,159.31488 48.825152,159.046785 48.381632,158.525915 C47.756352,157.79057 47.135552,156.967136 46.537152,156.077955 C45.846592,155.05345 46.120512,153.66574 47.147072,152.97763 C48.173632,152.28952 49.566272,152.56336 50.255552,153.58595 C50.761792,154.337253 51.280192,155.02664 51.797952,155.63496 C52.598592,156.576483 52.482752,157.985896 51.539392,158.784435 C51.118272,159.140618 50.603072,159.31488 50.091072,159.31488" id="Fill-318" fill="#F2925F"></path>
                            <path d="M2.46688,12.7343109 C1.25408,12.7343109 0.25696,11.7685313 0.22816,10.55253 C0.11552,5.74916503 0.11424,2.90991358 0.11424,2.79182421 C0.11424,1.55794987 1.11712,0.557700988 2.35424,0.557700988 C3.59136,0.557700988 4.59424,1.55794987 4.59424,2.79182421 C4.59424,2.81991033 4.59552,5.70065264 4.70688,10.4478453 C4.73632,11.6810813 3.75712,12.7049481 2.52,12.7336725 C2.50272,12.7343109 2.4848,12.7343109 2.46688,12.7343109 M3.0384,28.0808224 C1.85312,28.0808224 0.86368,27.1533421 0.80288,25.959682 C0.67424,23.4185264 0.56032,20.8282201 0.46432,18.2608934 C0.4176,17.0276574 1.38272,15.9910242 2.6192,15.9450651 C3.85056,15.9080425 4.89504,16.8610556 4.94112,18.0942916 C5.03648,20.6418304 5.14976,23.2123488 5.27776,25.7337164 C5.33984,26.9663141 4.3888,28.0157137 3.1536,28.0782691 C3.1152,28.0801841 3.0768,28.0808224 3.0384,28.0808224 M4.0304,43.4005245 C2.87392,43.4005245 1.89344,42.5126201 1.8,41.3432162 C1.60096,38.8435515 1.41472,36.2570751 1.2464,33.6540024 C1.16704,32.4226813 2.10336,31.359877 3.33792,31.2807252 C4.57568,31.2022117 5.63808,32.1354369 5.71744,33.366758 C5.88384,35.9474894 6.0688,38.5116246 6.26592,40.9889481 C6.36384,42.2189925 5.44352,43.2952015 4.21088,43.3928646 C4.15008,43.3979712 4.09056,43.4005245 4.0304,43.4005245 M5.5088,58.679374 C4.38624,58.679374 3.41792,57.8393437 3.28608,56.6999409 C2.99936,54.2168725 2.72672,51.6348644 2.4752,49.0260468 C2.3568,47.7979173 3.25856,46.7063885 4.49056,46.5882992 C5.71808,46.4721248 6.81568,47.3702423 6.93408,48.5983718 C7.18368,51.1797416 7.45376,53.7336636 7.73664,56.1892841 C7.87872,57.4148603 6.9968,58.5229854 5.768,58.6640543 C5.68096,58.6742675 5.59456,58.679374 5.5088,58.679374 M7.62272,73.8803484 C6.54624,73.8803484 5.59648,73.1047885 5.41536,72.0107065 C5.00896,69.5589158 4.6192,66.9858442 4.25632,64.3629835 C4.088,63.140599 4.94432,62.0133242 6.16992,61.8448075 C7.39232,61.6743758 8.52576,62.5303642 8.69472,63.7527487 C9.05184,66.3366718 9.43584,68.8695292 9.8352,71.281744 C10.03744,72.499022 9.2112,73.6492763 7.99072,73.8503473 C7.8672,73.8707736 7.74432,73.8803484 7.62272,73.8803484 M10.66848,88.9211043 C9.66176,88.9211043 8.7472,88.2400158 8.49504,87.2212557 C7.90688,84.8377653 7.33856,82.28512 6.80672,79.6341732 C6.56416,78.4245551 7.35072,77.2474913 8.56352,77.0055677 C9.77376,76.7630057 10.95712,77.5475021 11.19968,78.7577586 C11.71872,81.3448733 12.27232,83.8324099 12.84512,86.1520681 C13.14144,87.3501965 12.40736,88.5610913 11.20608,88.8559955 C11.02624,88.9000397 10.84576,88.9211043 10.66848,88.9211043 M15.33152,103.526525 C14.45472,103.526525 13.62336,103.010762 13.26368,102.154135 C12.32928,99.9263953 11.42816,97.4331137 10.58592,94.7451443 C10.21728,93.5674422 10.8752,92.3144183 12.056,91.9461071 C13.23872,91.5797109 14.49312,92.2346282 14.8624,93.4123303 C15.66304,95.9688055 16.51552,98.3293163 17.3968,100.429392 C17.87424,101.567518 17.336,102.876715 16.19488,103.352902 C15.91264,103.470991 15.61952,103.526525 15.33152,103.526525 M19.20928,110.986582 C18.4816,110.986582 17.76864,110.63359 17.33792,109.983141 C17.19136,109.761006 17.04608,109.535678 16.90208,109.306521 C16.24608,108.259675 16.5648,106.88154 17.61376,106.227261 C18.66272,105.572982 20.04448,105.890866 20.70048,106.937074 C20.82464,107.134953 20.95008,107.33028 21.0768,107.521138 C21.7584,108.550749 21.4736,109.936544 20.44128,110.616356 C20.06112,110.866578 19.63296,110.986582 19.20928,110.986582" id="Fill-320" fill="#F2925F"></path>
                            <path d="M96.887808,49.5344055 C95.650688,49.5344055 94.647808,48.5341567 94.647808,47.3002823 C94.647808,42.5652177 94.610688,39.6966035 94.610048,39.6678791 C94.594048,38.4340047 95.584128,37.4209894 96.821248,37.4050314 C98.083328,37.3980099 99.074048,38.3759175 99.090048,39.6097919 C99.090048,39.6385163 99.127808,42.5326634 99.127808,47.3002823 C99.127808,48.5341567 98.124928,49.5344055 96.887808,49.5344055 M96.770688,64.8860237 L96.736768,64.8860237 C95.499648,64.8675124 94.512128,63.8525821 94.530048,62.6187078 C94.571648,59.8860559 94.599808,57.3187292 94.617728,54.96141 C94.627328,53.7339189 95.628288,52.7445215 96.857088,52.7445215 L96.874368,52.7445215 C98.112128,52.7540963 99.107328,53.762005 99.097728,54.9958793 C99.079808,57.3627733 99.051648,59.9415898 99.010048,62.6857315 C98.991488,63.908116 97.992448,64.8860237 96.770688,64.8860237 M96.419968,80.2267903 C96.396288,80.2267903 96.372608,80.2267903 96.348928,80.226152 C95.113088,80.1878528 94.141568,79.1576028 94.179968,77.9243668 C94.260608,75.3046977 94.328448,72.7456692 94.385408,70.2721756 C94.414208,69.0383013 95.442688,68.0629469 96.675968,68.0897564 C97.913088,68.1178425 98.892288,69.1404326 98.864128,70.3743069 C98.807168,72.8592903 98.739328,75.430447 98.657408,78.0616058 C98.619648,79.2718623 97.624448,80.2267903 96.419968,80.2267903 M95.794688,95.5586205 C95.755648,95.5586205 95.717248,95.5573439 95.678208,95.5554289 C94.443008,95.4922351 93.492608,94.4428356 93.555968,93.2102379 C93.687168,90.6461027 93.803008,88.0921807 93.905408,85.5701748 C93.955328,84.3369388 94.995328,83.380734 96.234368,83.4279698 C97.469568,83.4777588 98.431488,84.5175836 98.381568,85.7501813 C98.279168,88.2887836 98.162048,90.8580253 98.029568,93.4381184 C97.968128,94.6317785 96.979328,95.5586205 95.794688,95.5586205 M94.814848,110.871301 C94.755968,110.871301 94.696448,110.868748 94.636288,110.86428 C93.403648,110.767255 92.482048,109.691684 92.579328,108.46164 C92.771968,106.011764 92.954368,103.448267 93.119488,100.842641 C93.197568,99.61132 94.240768,98.6844781 95.497088,98.7540551 C96.731648,98.8325685 97.669248,99.8940962 97.591168,101.125417 C97.424128,103.753384 97.240448,106.339861 97.045248,108.812078 C96.953088,109.982758 95.971968,110.871301 94.814848,110.871301 M93.305088,126.139299 C93.214208,126.139299 93.121408,126.133554 93.029248,126.122703 C91.801728,125.972059 90.927488,124.857551 91.079168,123.632613 C91.372288,121.252314 91.651968,118.704775 91.911168,116.062127 C92.030848,114.833997 93.116288,113.93588 94.358528,114.055884 C95.589888,114.175888 96.490368,115.268056 96.369408,116.496185 C96.107008,119.176495 95.822848,121.760418 95.525248,124.177739 C95.385728,125.309482 94.420608,126.139299 93.305088,126.139299 M90.832768,141.278356 C90.674688,141.278356 90.514048,141.26176 90.353408,141.226652 C89.144448,140.963664 88.378368,139.773196 88.642048,138.567407 C89.129088,136.343497 89.594368,133.847663 90.024448,131.150757 C90.218368,129.93284 91.362688,129.10047 92.588288,129.295796 C93.810048,129.489846 94.643328,130.634993 94.448128,131.853548 C94.005248,134.633436 93.523968,137.21289 93.019648,139.520421 C92.791168,140.565352 91.863168,141.278356 90.832768,141.278356 M85.552128,155.232052 C85.047808,155.232052 84.540288,155.063535 84.121728,154.716288 C83.170048,153.927324 83.039488,152.519188 83.831168,151.570005 C84.827648,150.373791 85.795968,148.408401 86.709888,145.72873 C87.107328,144.561879 88.376448,143.935048 89.551488,144.332722 C90.722688,144.729758 91.349248,145.999378 90.951168,147.167505 C89.845248,150.410814 88.643328,152.785368 87.275648,154.426491 C86.833408,154.958212 86.195328,155.232052 85.552128,155.232052" id="Fill-322" fill="#F2925F"></path>
                            <path d="M121.197824,28.9959193 L121.158784,28.9959193 C119.922304,28.9742164 118.936704,27.9573712 118.957824,26.7234968 C119.039744,21.9220469 119.041024,19.068114 119.041024,19.0393896 C119.041024,17.8055152 120.043904,16.8052664 121.281024,16.8052664 C122.518144,16.8052664 123.521024,17.8055152 123.521024,19.0393896 C123.521024,19.068114 123.519744,21.9558779 123.436544,26.8000953 C123.416064,28.0205649 122.417024,28.9959193 121.197824,28.9959193 M120.790784,44.3596655 C120.763904,44.3596655 120.737024,44.3596655 120.710144,44.3583889 C119.474304,44.314983 118.507264,43.2796265 118.550784,42.0463905 C118.649344,39.3009722 118.727424,36.7349221 118.788864,34.3865395 C118.822144,33.1533034 119.825664,32.1785874 121.087744,32.2124184 C122.324864,32.2449728 123.300224,33.2713928 123.267584,34.5046288 C123.204864,36.8657779 123.126784,39.4452328 123.028224,42.2053324 C122.985344,43.4111206 121.991424,44.3596655 120.790784,44.3596655 M120.108544,59.7061771 C120.067584,59.7061771 120.027904,59.7055388 119.986304,59.7029855 C118.751744,59.6372384 117.803264,58.5846472 117.869824,57.3526878 C118.011264,54.7189757 118.135424,52.1625004 118.244224,49.7024116 C118.299264,48.4691756 119.354624,47.5085026 120.580864,47.5691431 C121.817344,47.6240387 122.774784,48.6670551 122.720384,49.9002911 C122.610304,52.3731463 122.485504,54.9436647 122.343424,57.5914199 C122.278784,58.783165 121.290624,59.7061771 120.108544,59.7061771 M119.133184,75.031624 C119.077504,75.031624 119.021824,75.0297091 118.965504,75.0252408 C117.731584,74.9345993 116.806144,73.8628584 116.897024,72.6321757 C117.089024,70.0488909 117.263744,67.4987989 117.422464,64.9965809 C117.500544,63.7646215 118.581504,62.8333113 119.798784,62.9079948 C121.033984,62.98587 121.971584,64.0473977 121.893504,65.2787187 C121.733504,67.7968947 121.557504,70.3635832 121.364864,72.9628259 C121.277824,74.1366981 120.295424,75.031624 119.133184,75.031624 M117.812864,90.3289849 C117.739264,90.3289849 117.664384,90.3257933 117.589504,90.3181334 C116.358144,90.1962141 115.458944,89.1027704 115.581184,87.874641 C115.828224,85.3826361 116.065664,82.8210542 116.285824,80.2594724 C116.391424,79.0300663 117.480064,78.1179057 118.708864,78.2245053 C119.942144,78.3304666 120.855424,79.4124205 120.749824,80.6418266 C120.527744,83.2219198 120.288384,85.8039279 120.039424,88.3150824 C119.924864,89.46789 118.950784,90.3289849 117.812864,90.3289849 M116.057984,105.588046 C115.959424,105.588046 115.860864,105.581663 115.761024,105.568259 C114.534784,105.406763 113.671424,104.283957 113.833984,103.060934 C114.157184,100.625101 114.471424,98.0750093 114.768384,95.480873 C114.909184,94.2559352 116.015104,93.3782439 117.248384,93.5148446 C118.477184,93.6552752 119.360384,94.7621237 119.219584,95.9883382 C118.919424,98.6086455 118.601344,101.184909 118.275584,103.646913 C118.126464,104.770357 117.163904,105.588046 116.057984,105.588046 M113.712384,120.760296 C113.581184,120.760296 113.447424,120.748807 113.313664,120.725189 C112.095744,120.506245 111.286144,119.345139 111.505024,118.131053 C111.934464,115.745647 112.356224,113.21662 112.756224,110.614185 C112.943744,109.395631 114.084224,108.556877 115.309824,108.745182 C116.532864,108.93221 117.371904,110.072251 117.184384,111.292082 C116.778624,113.932178 116.351104,116.498866 115.913984,118.921294 C115.719424,120.001971 114.776064,120.760296 113.712384,120.760296 M110.472064,135.766583 C110.286464,135.766583 110.097664,135.742965 109.908864,135.694453 C108.711424,135.384867 107.992064,134.165674 108.303104,132.971376 C108.899584,130.67342 109.483904,128.19099 110.040064,125.593024 C110.297984,124.385959 111.489024,123.615506 112.698624,123.874664 C113.908224,124.131908 114.679424,125.319184 114.421504,126.526249 C113.851904,129.186771 113.252224,131.732395 112.639104,134.092267 C112.377984,135.098899 111.468544,135.766583 110.472064,135.766583 M105.624704,150.317747 C105.325184,150.317747 105.021824,150.257106 104.729984,150.130719 C103.595904,149.637297 103.078144,148.319802 103.572864,147.189336 C104.479104,145.119261 105.362944,142.772155 106.198784,140.210573 C106.582144,139.037978 107.845504,138.395188 109.023104,138.778819 C110.198784,139.161174 110.841984,140.422496 110.459264,141.595091 C109.577984,144.292635 108.642304,146.776342 107.679104,148.976634 C107.311104,149.816665 106.488704,150.317747 105.624704,150.317747 M100.313344,159.31488 C99.801344,159.31488 99.287424,159.140618 98.866304,158.785074 C97.922944,157.987172 97.805824,156.57776 98.605824,155.636237 C99.124224,155.026002 99.642624,154.336615 100.148224,153.58595 C100.838784,152.561445 102.229504,152.290797 103.257344,152.97763 C104.283904,153.66574 104.557184,155.05345 103.867264,156.077955 C103.269504,156.965221 102.649344,157.788655 102.023424,158.524639 C101.580544,159.046785 100.948864,159.31488 100.313344,159.31488" id="Fill-324" fill="#F2925F"></path>
                            <path d="M147.937792,12.7343109 C147.919872,12.7343109 147.901952,12.7343109 147.884032,12.7336725 C146.646912,12.7049481 145.668352,11.6810813 145.697152,10.4478453 C145.809152,5.70065264 145.810432,2.81991033 145.810432,2.79182421 C145.810432,1.55794987 146.813312,0.557700988 148.050432,0.557700988 C149.286912,0.557700988 150.290432,1.55794987 150.290432,2.79182421 C150.290432,2.90991358 150.289152,5.74916503 150.175872,10.55253 C150.147072,11.767893 149.150592,12.7343109 147.937792,12.7343109 M147.365632,28.0808224 C147.327872,28.0808224 147.289472,28.0801841 147.251072,28.0782691 C146.015232,28.0157137 145.064832,26.9663141 145.126912,25.7337164 C145.255552,23.2021356 145.368192,20.6322556 145.462912,18.0942916 C145.508352,16.8616939 146.557952,15.8984677 147.784832,15.9450651 C149.020672,15.9910242 149.985792,17.0276574 149.940352,18.2608934 C149.844352,20.818007 149.730432,23.4083133 149.601152,25.959682 C149.540992,27.1533421 148.550912,28.0808224 147.365632,28.0808224 M146.374272,43.4005245 C146.314752,43.4005245 146.254592,43.3979712 146.193792,43.3928646 C144.961152,43.2952015 144.040192,42.2189925 144.138112,40.9889481 C144.335872,38.5116246 144.520832,35.9474894 144.687232,33.366758 C144.767232,32.1354369 145.817472,31.204765 147.067392,31.2807252 C148.301312,31.359877 149.237632,32.4226813 149.158272,33.6540024 C148.989952,36.2570751 148.803712,38.8435515 148.604672,41.3432162 C148.511232,42.5126201 147.530112,43.4005245 146.374272,43.4005245 M144.894592,58.679374 C144.808832,58.679374 144.723072,58.6742675 144.635392,58.6640543 C143.406592,58.5223471 142.525312,57.414222 142.667392,56.1886458 C142.949632,53.7432384 143.220352,51.1893164 143.469952,48.5983718 C143.588352,47.3702423 144.678912,46.4740397 145.914112,46.5882992 C147.145472,46.7063885 148.047872,47.7979173 147.929472,49.0260468 C147.677312,51.6450775 147.403392,54.2270856 147.117312,56.7005792 C146.986112,57.8393437 146.017152,58.679374 144.894592,58.679374 M142.781312,73.8803484 C142.660352,73.8803484 142.537472,73.8707736 142.413312,73.8503473 C141.193472,73.6492763 140.367232,72.499022 140.568832,71.281744 C140.968192,68.8733591 141.352192,66.3405017 141.710592,63.7527487 C141.878912,62.5303642 143.011072,61.6750141 144.235392,61.8448075 C145.460992,62.0133242 146.317312,63.1412373 146.147712,64.3636218 C145.784832,66.9903124 145.394432,69.563384 144.989312,72.0107065 C144.807552,73.1047885 143.857792,73.8803484 142.781312,73.8803484 M139.736192,88.9211043 C139.558272,88.9211043 139.379072,88.9000397 139.199232,88.8559955 C137.997952,88.5617296 137.263232,87.3514731 137.558912,86.1533448 C138.133632,83.82475 138.686592,81.3365751 139.204352,78.7577586 C139.447552,77.5481404 140.625792,76.763644 141.841152,77.0055677 C143.053312,77.2474913 143.840512,78.4245551 143.597312,79.6348115 C143.067392,82.2768218 142.499072,84.8288289 141.908992,87.219979 C141.657472,88.2393775 140.742912,88.9211043 139.736192,88.9211043 M135.073152,103.526525 C134.784512,103.526525 134.491392,103.470991 134.209152,103.352902 C133.068032,102.876076 132.530432,101.567518 133.007872,100.429392 C133.888512,98.3318696 134.740992,95.9713588 135.542272,93.4129686 C135.910912,92.2346282 137.167232,91.5790726 138.348672,91.9461071 C139.528832,92.31378 140.187392,93.5668039 139.818112,94.7451443 C138.975872,97.4363053 138.074752,99.9295869 137.140352,102.154774 C136.780672,103.010762 135.949312,103.526525 135.073152,103.526525 M131.195392,110.986582 C130.772352,110.986582 130.344832,110.867216 129.965312,110.617632 C128.932352,109.939097 128.645632,108.553941 129.326592,107.523053 C129.453312,107.330918 129.579392,107.134315 129.704832,106.935159 C130.362752,105.888951 131.745792,105.57362 132.792192,106.228538 C133.841152,106.884093 134.157952,108.262866 133.500672,109.307798 C133.357312,109.536317 133.213312,109.760367 133.068032,109.981226 C132.637312,110.632952 131.923712,110.986582 131.195392,110.986582" id="Fill-326" fill="#F2925F"></path>
                        </g>
                        <g id="Group-385" stroke-width="1" fill="none" transform="translate(0.000000, 0.019150)">
                            <path d="M138.779968,12.4232571 C138.779968,12.4232571 138.701888,12.4998556 138.651328,12.5502829 C138.694208,12.5113454 138.735168,12.462833 138.779968,12.4245337 L138.779968,12.4232571 Z" id="Fill-329" fill="#131512"></path>
                            <path d="M119.382528,73.6023597 C119.382528,73.6023597 123.277568,68.2040796 125.660288,68.8526137 C125.660288,68.8526137 126.978688,28.4800922 136.644608,14.8474723 C131.652608,21.0257804 119.554048,39.4898514 119.382528,73.6023597" id="Fill-331" fill="#131512"></path>
                            <path d="M124.807168,94.007373 C124.789248,93.9939683 124.777728,93.9620522 124.755968,93.9473709 C124.777728,93.9633289 124.789248,93.99333 124.807168,94.007373" id="Fill-333" fill="#131512"></path>
                            <path d="M125.567808,94.2947451 C125.601728,94.2972984 125.624768,94.3272995 125.660608,94.3279378 C129.274688,94.4792198 151.752128,83.4586092 175.881408,82.3287811 L175.881408,82.3243129 C151.752128,83.450311 129.258688,94.4651768 125.642688,94.3196396 C125.616448,94.318363 125.594688,94.2966601 125.567808,94.2947451" id="Fill-335" fill="#131512"></path>
                            <path d="M124.174976,93.1817687 C124.161536,93.1536826 124.151296,93.1160217 124.137216,93.0860206 C124.151296,93.1160217 124.161536,93.152406 124.174976,93.1817687" id="Fill-337" fill="#131512"></path>
                            <path d="M232.375936,73.6023597 C232.375936,73.6023597 228.482816,68.2040796 226.100736,68.8526137 C226.100736,68.8526137 224.780416,28.4800922 215.115136,14.8474723 C220.107136,21.0257804 232.204416,39.4898514 232.375936,73.6023597" id="Fill-339" fill="#131512"></path>
                            <path d="M215.115328,14.8475361 C214.486208,13.9558018 213.812288,13.1936466 213.108928,12.5502191 C213.065408,12.5112815 213.024448,12.4627691 212.980928,12.4251082 C212.139328,11.682741 211.249088,11.1101671 210.298048,10.7756869 C197.389248,6.21679894 184.883008,0.819795558 175.881408,0.617447826 C166.876608,0.819795558 154.371648,6.21679894 141.462208,10.7756869 C140.511808,11.1101671 139.621568,11.682741 138.779968,12.4251082 C138.735168,12.4627691 138.694208,12.5112815 138.651328,12.5502191 C137.946688,13.1936466 137.274688,13.9558018 136.644928,14.8475361 C126.979008,28.4795177 125.660608,68.8520392 125.660608,68.8520392 C143.783488,59.8542675 160.916288,56.9907599 175.881408,57.2569397 C190.843328,56.9907599 207.978048,59.8542675 226.100928,68.8520392 C226.100928,68.8520392 224.780608,28.4795177 215.115328,14.8475361" id="Fill-341" fill="#425D72"></path>
                            <path d="M228.22784,90.6528051 C224.08384,90.4836501 200.51904,79.6219813 175.88096,78.640882 C151.24096,79.6219813 127.67616,90.4836501 123.53216,90.6528051 C123.52192,90.6528051 123.50528,90.65855 123.49504,90.65855 C123.61984,91.6498624 123.84064,92.4630832 124.13696,93.0860844 C124.15104,93.1160855 124.16192,93.1531081 124.17472,93.1818326 C124.33984,93.502908 124.5376,93.7569597 124.75648,93.9478177 C124.7776,93.9618607 124.78912,93.9944151 124.80704,94.0071815 C125.0304,94.1801665 125.28768,94.2708081 125.568,94.2950643 C125.59488,94.2963409 125.61664,94.3180438 125.64288,94.3199588 C129.25824,94.4648576 151.75168,83.4506302 175.88096,82.3239937 C200.00896,83.4506302 222.50112,94.4648576 226.11776,94.3199588 C226.14336,94.3180438 226.16512,94.2963409 226.192,94.2950643 C226.47232,94.2708081 226.72832,94.1801665 226.95232,94.0071815 C226.96896,93.9944151 226.98176,93.9618607 227.00224,93.9478177 C227.22368,93.7569597 227.41888,93.502908 227.58592,93.1818326 C227.59872,93.1531081 227.6064,93.1160855 227.62432,93.0860844 C227.92,92.4630832 228.14016,91.6498624 228.26624,90.65855 C228.25344,90.65855 228.23616,90.6528051 228.22784,90.6528051" id="Fill-343" fill="#1F1F1F"></path>
                            <path d="M226.100928,68.8522945 C207.978048,59.8538845 190.843328,56.9903769 175.881408,57.257195 C160.916288,56.9903769 143.783488,59.8538845 125.660608,68.8522945 C125.660608,68.8522945 122.632128,83.6083593 123.531968,90.6528689 C127.675968,90.4837139 151.240768,79.6220451 175.881408,78.6409459 C200.518848,79.6220451 224.084288,90.4837139 228.227648,90.6528689 C229.127488,83.6083593 226.100928,68.8522945 226.100928,68.8522945" id="Fill-345" fill="#333B46"></path>
                            <path d="M219.770944,60.9228806 C219.770944,60.9228806 214.725184,66.7035148 203.089344,66.349885 C191.453504,65.9968936 187.235264,59.2721827 184.514624,51.6008419 C184.514624,51.6008419 182.858944,45.936382 182.858944,42.0432627 C182.858944,38.1488668 187.945664,37.057338 191.969344,36.836479 C191.969344,36.836479 202.024384,36.3788029 212.908864,36.8511604 C212.908864,36.8511604 222.965184,36.0251731 222.965184,46.7623693 C222.965184,58.7991869 219.770944,60.9228806 219.770944,60.9228806 M167.241664,51.6008419 C164.521664,59.2721827 160.304064,65.9968936 148.668224,66.349885 C137.032384,66.7035148 131.985344,60.9228806 131.985344,60.9228806 C131.985344,60.9228806 128.791744,58.9562138 128.791744,46.7623693 C128.791744,36.0251731 138.848064,36.8511604 138.848064,36.8511604 C149.732544,36.3788029 159.788224,36.836479 159.788224,36.836479 C163.811904,37.057338 168.898624,38.1488668 168.898624,42.0432627 C168.898624,45.936382 167.241664,51.6008419 167.241664,51.6008419 M185.225024,35.0810965 C185.225024,35.0810965 183.095104,35.7889944 177.298624,35.670905 L174.458944,35.670905 C168.661184,35.7889944 166.531264,35.0810965 166.531264,35.0810965 C141.332544,31.0692495 122.876864,36.4968923 122.876864,36.4968923 L122.876864,42.5149819 C122.876864,42.5149819 125.479744,43.2228798 125.715264,47.5889949 C125.952704,51.9544717 126.307264,65.0528169 139.084224,67.5301404 C151.862464,70.0081022 159.079104,66.7047915 159.079104,66.7047915 C159.079104,66.7047915 167.715264,62.6923062 170.200384,50.6567652 C170.200384,50.6567652 171.264704,45.5827522 174.458944,44.4031352 C174.458944,44.4031352 176.179904,43.7814106 177.298624,44.4031352 C180.492864,45.5827522 181.557824,50.6567652 181.557824,50.6567652 C184.041664,62.6923062 192.679104,66.7047915 192.679104,66.7047915 C192.679104,66.7047915 199.895104,70.0081022 212.672064,67.5301404 C225.449664,65.0528169 225.804864,51.9544717 226.040384,47.5889949 C226.277184,43.2228798 228.881344,42.5149819 228.881344,42.5149819 L228.881344,36.4968923 C228.881344,36.4968923 210.424384,31.0692495 185.225024,35.0810965" id="Fill-347" fill="#131512"></path>
                            <path d="M138.847808,36.5738099 C138.847808,36.5738099 128.791488,36.0248539 128.791488,46.7626884 C128.791488,47.9301774 128.820928,49.0019182 128.874048,49.9894007 L142.439488,36.4589122 C141.261248,36.4831684 140.059328,36.5208293 138.847808,36.5738099" id="Fill-349" fill="#474D5A"></path>
                            <path d="M159.788096,36.8362237 C159.788096,36.8362237 156.590656,36.6025982 151.850176,36.4832322 L130.243136,58.0335848 C131.087296,60.369201 131.985856,60.9226253 131.985856,60.9226253 C131.985856,60.9226253 136.256576,66.7345372 148.668096,66.350268 C160.303936,65.990255 164.520896,59.2719274 167.241536,51.6012249 C167.241536,51.6012249 168.897216,45.936765 168.897216,42.0436457 C168.897216,38.1492498 163.810496,37.057721 159.788096,36.8362237" id="Fill-351" fill="#474D5A"></path>
                            <path d="M142.43936,36.4591037 L128.87392,49.9889539 C129.08128,53.8463272 129.64832,56.3842912 130.24352,58.0330741 L151.84992,36.4833598 C149.12032,36.4150595 145.87808,36.3850584 142.43936,36.4591037" id="Fill-353" fill="#636275"></path>
                            <path d="M212.910912,36.5738099 C210.579392,36.4723169 208.288192,36.4269961 206.125632,36.4180596 L186.404672,56.0866421 C189.253312,61.6923764 193.814592,65.9672116 203.088832,66.3502042 C215.220672,66.8519244 219.772352,60.9231997 219.772352,60.9231997 C219.772352,60.9231997 222.966592,58.9558947 222.966592,46.7626884 C222.966592,36.0248539 212.910912,36.5738099 212.910912,36.5738099" id="Fill-355" fill="#474D5A"></path>
                            <path d="M191.969088,36.8362237 C187.946048,37.057721 182.859328,38.1492498 182.859328,42.0436457 C182.859328,44.3122383 183.421888,47.1821291 183.891008,49.1826269 L196.511808,36.5955767 C193.706048,36.7098361 191.969088,36.8362237 191.969088,36.8362237" id="Fill-357" fill="#474D5A"></path>
                            <path d="M196.511552,36.5956405 L183.890752,49.1826907 C184.228032,50.6144445 184.514752,51.6012887 184.514752,51.6012887 C185.067072,53.1549618 185.680832,54.6633141 186.404672,56.0867698 L206.125632,36.4181873 C202.377792,36.4009526 199.018432,36.4928708 196.511552,36.5956405" id="Fill-359" fill="#636275"></path>
                            <path d="M125.660288,68.8522945 C125.660288,68.8522945 121.607168,35.2395915 101.767168,39.3886775 C81.927168,43.5377635 85.591168,69.1969878 112.078848,80.9427311 C112.078848,80.9427311 123.158528,70.0548912 125.660288,68.8522945" id="Fill-361" fill="#4E2F1B"></path>
                            <path d="M120.967168,71.9432359 C120.967168,71.9432359 108.928768,52.5312584 99.145088,54.3894106 C89.362048,56.2475628 105.598208,73.1751953 116.482688,76.7083016 L120.967168,71.9432359 Z" id="Fill-363" fill="#CE3828"></path>
                            <path d="M226.115328,68.8522945 C226.115328,68.8522945 230.168448,35.2395915 250.008448,39.3886775 C269.848448,43.5377635 266.184448,69.1969878 239.696768,80.9427311 C239.696768,80.9427311 228.617088,70.0548912 226.115328,68.8522945" id="Fill-365" fill="#4E2F1B"></path>
                            <path d="M230.808448,71.9432359 C230.808448,71.9432359 242.847488,52.5312584 252.630528,54.3894106 C262.413568,56.2475628 246.177408,73.1751953 235.292928,76.7083016 L230.808448,71.9432359 Z" id="Fill-367" fill="#CE3828"></path>
                            <path d="M90.863424,116.6167 C90.863424,116.6167 87.162944,127.513476 86.070464,132.653236 C86.070464,132.653236 108.807104,130.030376 117.447104,129.072894 C117.447104,129.072894 102.679744,117.884405 90.863424,116.6167" id="Fill-369" fill="#4E2F1B"></path>
                            <path d="M83.954048,143.770553 C83.954048,143.770553 82.562688,155.67843 82.418048,158.64726 C82.418048,158.64726 109.767168,152.738323 114.247168,152.874286 C114.247168,152.874286 103.580928,145.382313 83.954048,143.770553" id="Fill-371" fill="#4E2F1B"></path>
                            <path d="M248.77216,93.0860844 C248.77216,93.0860844 255.5824,104.742463 256.73632,107.256171 C256.73632,107.256171 219.69952,110.561396 214.89696,111.518878 C214.89696,111.518878 234.65056,95.3987211 248.77216,93.0860844" id="Fill-373" fill="#4E2F1B"></path>
                            <path d="M260.678464,116.6167 C260.678464,116.6167 264.378304,127.513476 265.471424,132.653236 C265.471424,132.653236 242.734784,130.030376 234.094784,129.072894 C234.094784,129.072894 248.862144,117.884405 260.678464,116.6167" id="Fill-375" fill="#4E2F1B"></path>
                            <path d="M267.58784,143.770553 C267.58784,143.770553 268.97984,155.67843 269.12384,158.64726 C269.12384,158.64726 241.77472,152.738323 237.29472,152.874286 C237.29472,152.874286 247.96096,145.382313 267.58784,143.770553" id="Fill-377" fill="#4E2F1B"></path>
                            <path d="M203.525952,184.034049 C203.246272,177.32019 177.662912,175.180538 175.881792,175.040107 L175.881152,175.031809 C175.881152,175.031809 175.860672,175.033724 175.831232,175.035639 C175.801152,175.033724 175.780672,175.031809 175.780672,175.031809 L175.780032,175.040107 C173.999552,175.180538 148.415552,177.32019 148.136512,184.034049 C147.902912,189.648082 167.029952,195.511059 174.420672,197.565176 L174.374592,198.330523 C174.374592,198.330523 174.910912,198.197114 175.831232,197.950722 C176.751552,198.197114 177.287232,198.330523 177.287232,198.330523 L177.241152,197.565176 C184.632512,195.511059 203.758912,189.648082 203.525952,184.034049" id="Fill-379" fill="#4E2F1B"></path>
                            <mask id="mask-6" fill="white">
                                <use xlink:href="#path-5"></use>
                            </mask>
                            <g id="Clip-382"></g>
                            <polygon id="Fill-381" fill="#4E2F1B" mask="url(#mask-6)" points="174.40704 211.948717 177.60704 211.948717 177.60704 195.352373 174.40704 195.352373"></polygon>
                            <path d="M166.726592,217.530897 C166.330432,217.530897 165.933632,217.506641 165.535552,217.458767 C157.646272,216.506392 152.592192,206.270278 152.380352,205.834943 C151.995072,205.04151 152.327872,204.08722 153.123392,203.702951 C153.918272,203.318043 154.874432,203.650608 155.259712,204.442765 C155.304512,204.533406 159.771072,213.553519 165.926592,214.29078 C168.837952,214.643771 171.812672,213.007755 174.775232,209.440818 C175.339712,208.761644 176.347712,208.668449 177.028032,209.230172 C177.708352,209.792532 177.803072,210.798526 177.239232,211.477061 C173.897792,215.499121 170.366912,217.530897 166.726592,217.530897" id="Fill-383" fill="#4E2F1B" mask="url(#mask-6)"></path>
                            <path d="M185.501568,217.530897 C181.861248,217.530897 178.330368,215.49976 174.988928,211.477061 C174.425088,210.798526 174.519808,209.792532 175.200128,209.230172 C175.881088,208.668449 176.888448,208.761644 177.452928,209.440818 C180.416768,213.007755 183.388928,214.639941 186.302208,214.29078 C192.456448,213.553519 196.923648,204.534045 196.967808,204.442765 C197.354368,203.64997 198.311168,203.31932 199.105408,203.704227 C199.899648,204.089135 200.232448,205.042148 199.847168,205.834943 C199.635968,206.270278 194.581888,216.506392 186.692608,217.458767 C186.294528,217.506641 185.897088,217.530897 185.501568,217.530897" id="Fill-384" fill="#4E2F1B" mask="url(#mask-6)"></path>
                        </g>
                    </g>
                </g>
            </g>
        </g>
    </g>
</svg>